mips_tamu/tags/lab6/test.vcd
$date
	Fri May 24 20:50:02 2013
$end
$version
	Icarus Verilog
$end
$timescale
	1ps
$end
$scope module PipelinedProcTest_v $end
$var wire 32 ! dMemOut [31:0] $end
$var reg 1 " CLK $end
$var reg 1 # Reset_L $end
$var reg 32 $ cc_counter [31:0] $end
$var reg 8 % passed [7:0] $end
$var reg 32 & startPC [31:0] $end
$scope module uut $end
$var wire 4 ' ALUCtrl [3:0] $end
$var wire 32 ( ALUOp1 [31:0] $end
$var wire 32 ) ALUOp2 [31:0] $end
$var wire 1 * Branch $end
$var wire 1 + CLK $end
$var wire 4 , EX_ALUOp [3:0] $end
$var wire 32 - EX_ALUOut [31:0] $end
$var wire 2 . EX_AluOpCtrlA [1:0] $end
$var wire 2 / EX_AluOpCtrlB [1:0] $end
$var wire 32 0 EX_DMIn [31:0] $end
$var wire 1 1 EX_DataMemForwardCtrl_EX $end
$var wire 1 2 EX_DataMemForwardCtrl_MEM $end
$var wire 32 3 EX_ExtImm [31:0] $end
$var wire 6 4 EX_Funct [5:0] $end
$var wire 26 5 EX_IRaddr [25:0] $end
$var wire 1 6 EX_MemRead $end
$var wire 5 7 EX_Rd [4:0] $end
$var wire 32 8 EX_RegA [31:0] $end
$var wire 32 9 EX_RegB [31:0] $end
$var wire 1 : EX_RegDst $end
$var wire 1 ; EX_RegWrite $end
$var wire 5 < EX_Rt [4:0] $end
$var wire 5 = EX_Rw [4:0] $end
$var wire 32 > EX_Shamt [31:0] $end
$var wire 5 ? EX_ctrlEX [4:0] $end
$var wire 2 @ EX_ctrlMEM [1:0] $end
$var wire 2 A EX_ctrlWB [1:0] $end
$var wire 32 B EX_pc4 [31:0] $end
$var wire 4 C ID_ALUOp [3:0] $end
$var wire 2 D ID_AluOpCtrlA [1:0] $end
$var wire 2 E ID_AluOpCtrlB [1:0] $end
$var wire 1 F ID_DataMemForwardCtrl_EX $end
$var wire 1 G ID_DataMemForwardCtrl_MEM $end
$var wire 32 H ID_ExtImm [31:0] $end
$var wire 6 I ID_Funct [5:0] $end
$var wire 32 J ID_IR [31:0] $end
$var wire 26 K ID_IRaddr [25:0] $end
$var wire 16 L ID_Imm [15:0] $end
$var wire 1 M ID_MemRead $end
$var wire 1 N ID_MemWrite $end
$var wire 6 O ID_Opcode [5:0] $end
$var wire 32 P ID_RegA [31:0] $end
$var wire 32 Q ID_RegB [31:0] $end
$var wire 1 R ID_RegDst $end
$var wire 1 S ID_RegSrc $end
$var wire 1 T ID_RegWrite $end
$var wire 5 U ID_Rs [4:0] $end
$var wire 5 V ID_Rt [4:0] $end
$var wire 5 W ID_ctrlEX [4:0] $end
$var wire 2 X ID_ctrlMEM [1:0] $end
$var wire 2 Y ID_ctrlWB [1:0] $end
$var wire 32 Z ID_pc4 [31:0] $end
$var wire 32 [ IF_IR [31:0] $end
$var wire 32 \ IF_pc4 [31:0] $end
$var wire 1 ] IF_write $end
$var wire 1 ^ Jump $end
$var wire 32 _ MEM_ALUOut [31:0] $end
$var wire 32 ` MEM_DMIn [31:0] $end
$var wire 32 a MEM_DataIn [31:0] $end
$var wire 1 b MEM_DataMemForwardCtrl_MEM $end
$var wire 1 c MEM_MemRead $end
$var wire 1 d MEM_MemWrite $end
$var wire 1 e MEM_RegWrite $end
$var wire 5 f MEM_Rw [4:0] $end
$var wire 2 g MEM_ctrlMEM [1:0] $end
$var wire 2 h MEM_ctrlWB [1:0] $end
$var wire 32 i MEM_dMemOut [31:0] $end
$var wire 1 j PC_write $end
$var wire 1 k Reset_L $end
$var wire 1 l SignExtend $end
$var wire 1 m UseImmed $end
$var wire 1 n UseShamt $end
$var wire 32 o WB_ALUOut [31:0] $end
$var wire 32 p WB_Out [31:0] $end
$var wire 1 q WB_RegSrc $end
$var wire 1 r WB_RegWrite $end
$var wire 5 s WB_Rw [4:0] $end
$var wire 2 t WB_ctrlWB [1:0] $end
$var wire 32 u WB_dMemOut [31:0] $end
$var wire 1 v Zero $end
$var wire 2 w addrSel [1:0] $end
$var wire 32 x branchTarget [31:0] $end
$var wire 1 y bubble $end
$var wire 32 z dMemOut [31:0] $end
$var wire 32 { jumpTarget [31:0] $end
$var wire 32 | npc [31:0] $end
$var wire 32 } pc [31:0] $end
$var wire 32 ~ startPC [31:0] $end
$scope module pc_mux $end
$var wire 32 !" i00 [31:0] $end
$var wire 32 "" i01 [31:0] $end
$var wire 32 #" i10 [31:0] $end
$var wire 32 $" i11 [31:0] $end
$var wire 2 %" sel [1:0] $end
$var reg 32 &" out [31:0] $end
$upscope $end
$scope module alu_mux_1 $end
$var wire 32 '" i00 [31:0] $end
$var wire 32 (" i01 [31:0] $end
$var wire 32 )" i10 [31:0] $end
$var wire 32 *" i11 [31:0] $end
$var wire 2 +" sel [1:0] $end
$var reg 32 ," out [31:0] $end
$upscope $end
$scope module alu_mux_2 $end
$var wire 32 -" i00 [31:0] $end
$var wire 32 ." i01 [31:0] $end
$var wire 32 /" i10 [31:0] $end
$var wire 32 0" i11 [31:0] $end
$var wire 2 1" sel [1:0] $end
$var reg 32 2" out [31:0] $end
$upscope $end
$scope module PC $end
$var wire 1 + CLK $end
$var wire 1 j PC_write $end
$var wire 1 k Reset_L $end
$var wire 32 3" npc [31:0] $end
$var wire 32 4" startPC [31:0] $end
$var reg 32 5" pc [31:0] $end
$upscope $end
$scope module InstructionMemory $end
$var wire 32 6" Address [31:0] $end
$var reg 32 7" Data [31:0] $end
$upscope $end
$scope module IF_ID $end
$var wire 1 + CLK $end
$var wire 32 8" IF_IR [31:0] $end
$var wire 32 9" IF_pc4 [31:0] $end
$var wire 1 ] IF_write $end
$var reg 32 :" ID_IR [31:0] $end
$var reg 32 ;" ID_pc4 [31:0] $end
$upscope $end
$scope module RegisterFile $end
$var wire 32 <" BusA [31:0] $end
$var wire 32 =" BusB [31:0] $end
$var wire 32 >" BusW [31:0] $end
$var wire 1 + Clk $end
$var wire 5 ?" RA [4:0] $end
$var wire 5 @" RB [4:0] $end
$var wire 5 A" RW [4:0] $end
$var wire 1 r RegWr $end
$var wire 1 B" RegWrValid $end
$var wire 1 C" WriteAddressValid $end
$upscope $end
$scope module ControlUnit $end
$var wire 4 D" ALUOp [3:0] $end
$var wire 6 E" FuncCode [5:0] $end
$var wire 1 M MemRead $end
$var wire 1 S MemToReg $end
$var wire 1 N MemWrite $end
$var wire 6 F" Opcode [5:0] $end
$var wire 1 R RegDst $end
$var wire 1 T RegWrite $end
$var wire 1 n UseShamt $end
$var wire 1 y bubble $end
$var reg 4 G" ALUOp_nb [3:0] $end
$var reg 1 H" Branch $end
$var reg 1 I" Jump $end
$var reg 1 J" MemRead_nb $end
$var reg 1 K" MemToReg_nb $end
$var reg 1 L" MemWrite_nb $end
$var reg 1 M" RegDst_nb $end
$var reg 1 N" RegWrite_nb $end
$var reg 1 O" ShiftInst $end
$var reg 1 P" SignExtend $end
$var reg 1 Q" UseImmed $end
$upscope $end
$scope module ForwardingUnit $end
$var wire 1 R" A_EX $end
$var wire 1 S" A_EX_0 $end
$var wire 1 T" A_MEM $end
$var wire 1 U" A_MEM_0 $end
$var wire 2 V" AluOpCtrlA [1:0] $end
$var wire 2 W" AluOpCtrlB [1:0] $end
$var wire 1 X" AnotR0 $end
$var wire 1 Y" B_EX $end
$var wire 1 Z" B_EX_0 $end
$var wire 1 [" B_MEM $end
$var wire 1 \" B_MEM_0 $end
$var wire 1 ]" BnotR0 $end
$var wire 1 F DataMemForwardCtrl_EX $end
$var wire 1 G DataMemForwardCtrl_MEM $end
$var wire 1 ; EX_RegWrite $end
$var wire 5 ^" EX_Rw [4:0] $end
$var wire 5 _" ID_Rs [4:0] $end
$var wire 5 `" ID_Rt [4:0] $end
$var wire 1 e MEM_RegWrite $end
$var wire 5 a" MEM_Rw [4:0] $end
$var wire 1 m UseImmed $end
$var wire 1 n UseShamt $end
$upscope $end
$scope module HazardUnit $end
$var wire 1 v ALUZero $end
$var wire 1 * Branch $end
$var wire 1 + Clk $end
$var wire 1 ^ Jump $end
$var wire 1 b" LH_Rs $end
$var wire 1 c" LH_Rt $end
$var wire 1 d" LdHazard $end
$var wire 1 k Rst $end
$var wire 1 m UseImmed $end
$var wire 1 n UseShamt $end
$var wire 5 e" currRs [4:0] $end
$var wire 5 f" currRt [4:0] $end
$var wire 1 6 memReadEX $end
$var wire 5 g" prevRt [4:0] $end
$var reg 1 h" IF_write $end
$var reg 1 i" PC_write $end
$var reg 2 j" addrSel [1:0] $end
$var reg 1 k" bubble $end
$var reg 2 l" next_state [1:0] $end
$var reg 2 m" state [1:0] $end
$upscope $end
$scope module ID_EX $end
$var wire 1 + CLK $end
$var wire 2 n" ID_AluOpCtrlA [1:0] $end
$var wire 2 o" ID_AluOpCtrlB [1:0] $end
$var wire 1 F ID_DataMemForwardCtrl_EX $end
$var wire 1 G ID_DataMemForwardCtrl_MEM $end
$var wire 32 p" ID_ExtImm [31:0] $end
$var wire 26 q" ID_IRaddr [25:0] $end
$var wire 32 r" ID_RegA [31:0] $end
$var wire 32 s" ID_RegB [31:0] $end
$var wire 5 t" ID_ctrlEX [4:0] $end
$var wire 2 u" ID_ctrlMEM [1:0] $end
$var wire 2 v" ID_ctrlWB [1:0] $end
$var wire 32 w" ID_pc4 [31:0] $end
$var wire 1 k Reset_L $end
$var reg 2 x" EX_AluOpCtrlA [1:0] $end
$var reg 2 y" EX_AluOpCtrlB [1:0] $end
$var reg 1 z" EX_DataMemForwardCtrl_EX $end
$var reg 1 {" EX_DataMemForwardCtrl_MEM $end
$var reg 32 |" EX_ExtImm [31:0] $end
$var reg 26 }" EX_IRaddr [25:0] $end
$var reg 32 ~" EX_RegA [31:0] $end
$var reg 32 !# EX_RegB [31:0] $end
$var reg 5 "# EX_ctrlEX [4:0] $end
$var reg 2 ## EX_ctrlMEM [1:0] $end
$var reg 2 $# EX_ctrlWB [1:0] $end
$var reg 32 %# EX_pc4 [31:0] $end
$upscope $end
$scope module ALU $end
$var wire 4 &# ALUCtrl [3:0] $end
$var wire 32 '# BusA [31:0] $end
$var wire 32 (# BusB [31:0] $end
$var wire 1 v Zero $end
$var wire 1 )# w_zero $end
$var reg 32 *# BusW [31:0] $end
$upscope $end
$scope module ALUControl $end
$var wire 4 +# ALUCtrl [3:0] $end
$var wire 4 ,# ALUOp [3:0] $end
$var wire 6 -# FuncCode [5:0] $end
$var wire 1 .# op_select $end
$var reg 4 /# decoded_FuncCode [3:0] $end
$upscope $end
$scope module EX_MEM $end
$var wire 1 + CLK $end
$var wire 32 0# EX_ALUOut [31:0] $end
$var wire 32 1# EX_DMIn [31:0] $end
$var wire 1 2 EX_DataMemForwardCtrl_MEM $end
$var wire 5 2# EX_Rw [4:0] $end
$var wire 2 3# EX_ctrlMEM [1:0] $end
$var wire 2 4# EX_ctrlWB [1:0] $end
$var wire 1 k Reset_L $end
$var reg 32 5# MEM_ALUOut [31:0] $end
$var reg 32 6# MEM_DMIn [31:0] $end
$var reg 1 7# MEM_DataMemForwardCtrl_MEM $end
$var reg 5 8# MEM_Rw [4:0] $end
$var reg 2 9# MEM_ctrlMEM [1:0] $end
$var reg 2 :# MEM_ctrlWB [1:0] $end
$upscope $end
$scope module DataMemory $end
$var wire 6 ;# Address [5:0] $end
$var wire 1 + Clock $end
$var wire 1 c MemoryRead $end
$var wire 1 d MemoryWrite $end
$var wire 32 <# WriteData [31:0] $end
$var reg 32 =# ReadData [31:0] $end
$upscope $end
$scope module MEM_WB $end
$var wire 1 + CLK $end
$var wire 32 ># MEM_ALUOut [31:0] $end
$var wire 5 ?# MEM_Rw [4:0] $end
$var wire 2 @# MEM_ctrlWB [1:0] $end
$var wire 32 A# MEM_dMemOut [31:0] $end
$var wire 1 k Reset_L $end
$var reg 32 B# WB_ALUOut [31:0] $end
$var reg 5 C# WB_Rw [4:0] $end
$var reg 2 D# WB_ctrlWB [1:0] $end
$var reg 32 E# WB_dMemOut [31:0] $end
$upscope $end
$upscope $end
$scope task allPassed $end
$var reg 8 F# numTests [7:0] $end
$var reg 8 G# passed [7:0] $end
$upscope $end
$scope task passTest $end
$var reg 32 H# actualOut [31:0] $end
$var reg 32 I# expectedOut [31:0] $end
$var reg 8 J# passed [7:0] $end
$var reg 257 K# testType [256:0] $end
$upscope $end
$upscope $end
$enddefinitions $end
#0
$dumpvars
bx K#
bx J#
bx I#
bx H#
bx G#
bx F#
bx E#
bx D#
bx C#
bx B#
bx A#
bx @#
bz ?#
bx >#
bx =#
bx <#
bx ;#
bx :#
bx 9#
bz 8#
x7#
bx 6#
bx 5#
bx 4#
bx 3#
bx 2#
bx 1#
bx 0#
bx /#
x.#
bx -#
bx ,#
bx +#
bx *#
x)#
bx (#
bx '#
bx &#
bx %#
bx $#
bx ##
bx "#
bx !#
bx ~"
bx }"
bx |"
x{"
xz"
bx y"
bx x"
bx w"
b0 v"
b0 u"
b0 t"
bx s"
bx r"
bx q"
b0xxxxxxxxxxxxxxxx p"
bx o"
bx n"
bx m"
b0 l"
0k"
b0 j"
1i"
1h"
bx g"
bx f"
bx e"
xd"
xc"
xb"
bz a"
bx `"
bx _"
bx ^"
x]"
x\"
x["
xZ"
xY"
xX"
bx W"
bx V"
xU"
xT"
xS"
xR"
0Q"
0P"
0O"
0N"
0M"
0L"
0K"
0J"
0I"
0H"
b0 G"
bx F"
bx E"
b0 D"
xC"
xB"
bx A"
bx @"
bx ?"
bx >"
bx ="
bx <"
bx ;"
bx :"
bx 9"
bx 8"
bx 7"
bx 6"
bx 5"
b0 4"
bx 3"
bx 2"
bx 1"
bx 0"
bx /"
bx ."
bx -"
bx ,"
bx +"
b0xxxxx *"
bx )"
bx ("
bx '"
bx &"
b0 %"
b0 $"
bx #"
bx00 ""
bx !"
b0 ~
bx }
bx |
bx00 {
bx z
0y
bx x
b0 w
xv
bx u
bx t
bx s
xr
xq
bx p
bx o
0n
0m
0l
1k
1j
bx i
bx h
bx g
bz f
xe
xd
xc
xb
bx a
bx `
bx _
0^
1]
bx \
bx [
bx Z
b0 Y
b0 X
b0 W
bx V
bx U
0T
0S
0R
bx Q
bx P
bx O
0N
0M
bx L
bx K
bx J
bx I
b0xxxxxxxxxxxxxxxx H
xG
xF
bx E
bx D
b0 C
bx B
bx A
bx @
bx ?
b0xxxxx >
bx =
bx <
x;
x:
bx 9
bx 8
bx 7
x6
bx 5
bx 4
bx 3
x2
x1
bx 0
bx /
bx .
bx -
bx ,
0+
0*
bx )
bx (
bx '
b0 &
b0 %
bx $
1#
0"
bx !
$end
#60000
1"
1+
#120000
bx0 D
bx0 V"
bx0 n"
bx0 E
bx0 W"
bx0 o"
0d"
0G
b0 '
b0 &#
b0 +#
0b"
0c"
0R"
0Y"
0.#
b0 ,
b0 ,#
0:
06
0;
0k"
0y
1i"
1j
1h"
1]
bz C#
bz s
bz A"
bx 8#
bx f
bx a"
bx ?#
b0xxxxxxxxxxxxxxxx |"
b0xxxxxxxxxxxxxxxx 3
b0xxxxxxxxxxxxxxxx 0"
b0 "#
b0 ?
b0 ##
b0 @
b0 3#
b0 $#
b0 A
b0 4#
b0 m"
0"
0+
#121000
0#
0k
#180000
1"
1+
#240000
b0 D
b0 V"
b0 n"
b0 E
b0 W"
b0 o"
0F
b100 &"
b100 |
b100 3"
0T"
0["
0B"
b100 \
b100 !"
b100 9"
b110100000010000000000000110010 7"
b110100000010000000000000110010 [
b110100000010000000000000110010 8"
0d
0c
0e
0q
0r
b0 5"
b0 }
b0 6"
0{"
02
bx0 y"
bx0 /
bx0 1"
bx0 x"
bx0 .
bx0 +"
b0 9#
b0 g
b0 :#
b0 h
b0 @#
b0 D#
b0 t
bx C#
bx s
bx A"
b0 $
0"
0+
#241000
1#
1k
#300000
1"
1+
#360000
b11 E
b11 W"
b11 o"
b10 Y
b10 v"
1T
b1 W
b1 t"
b1 C
b1 D"
b110010 H
b110010 p"
1N"
1Q"
1m
b1 G"
b1000 &"
b1000 |
b1000 3"
b10000000000000110010 K
b10000000000000110010 q"
b110010 L
b110010 I
b110010 E"
1]"
b1000 V
b1000 @"
b1000 `"
b1000 f"
b0 P
b0 <"
b0 r"
0X"
b0 U
b0 ?"
b0 _"
b0 e"
b1101 O
b1101 F"
b1000000000000011001000 {
b1000000000000011001000 ""
b1000 \
b1000 !"
b1000 9"
b10101100000010000000000000000000 7"
b10101100000010000000000000000000 [
b10101100000010000000000000000000 8"
b1 $
07#
0b
0z"
01
b0 y"
b0 /
b0 1"
b0 x"
b0 .
b0 +"
b110100000010000000000000110010 :"
b110100000010000000000000110010 J
b100 ;"
b100 Z
b100 w"
b100 5"
b100 }
b100 6"
0"
0+
#420000
1"
1+
#480000
b0 Y
b0 v"
0T
b1 X
b1 u"
1N
b10 W
b10 t"
b10 C
b10 D"
1G
0v
0)#
b0 H
b0 p"
1O"
0N"
1L"
1P"
1l
b10 G"
b1 '
b1 &#
b1 +#
1Y"
0S"
1Z"
b1000 =
b1000 ^"
b1000 2#
b1100 &"
b1100 |
b1100 3"
b110010 *#
b110010 -
b110010 0#
b1100 \
b1100 !"
b1100 9"
b110100000010000000000000101000 7"
b110100000010000000000000101000 [
b110100000010000000000000101000 8"
b1000000000000000000000 {
b1000000000000000000000 ""
b10000000000000000000 K
b10000000000000000000 q"
b0 L
b0 I
b0 E"
b101011 O
b101011 F"
b1 ,
b1 ,#
1;
b0 >
b0 *"
b110010 4
b110010 -#
b0 7
b1000 <
b1000 g"
b110010 2"
b110010 )
b110010 (#
b11001100 x
b11001100 #"
b0 ,"
b0 (
b0 '#
b1000 5"
b1000 }
b1000 6"
b10101100000010000000000000000000 :"
b10101100000010000000000000000000 J
b1000 ;"
b1000 Z
b1000 w"
b1 "#
b1 ?
b10 $#
b10 A
b10 4#
b10000000000000110010 }"
b10000000000000110010 5
b11 y"
b11 /
b11 1"
b110010 |"
b110010 3
b110010 0"
b0 ~"
b0 8
b0 '"
b100 %#
b100 B
b10 $
0"
0+
#540000
1"
1+
#600000
1v
1)#
0G
b0 X
b0 u"
0N
b10 Y
b10 v"
1T
b1 W
b1 t"
b1 C
b1 D"
1F
b11 /#
b0 *#
b0 -
b0 0#
b10 '
b10 &#
b10 +#
0Y"
b101000 H
b101000 p"
0O"
0P"
0l
0L"
1N"
b1 G"
1["
b110010 ;#
1e
b0 4
b0 -#
b0 2"
b0 )
b0 (#
b10000 &"
b10000 |
b10000 3"
b10 ,
b10 ,#
0;
b1000000000000010100000 {
b1000000000000010100000 ""
b10000000000000101000 K
b10000000000000101000 q"
b101000 L
b101000 I
b101000 E"
b1101 O
b1101 F"
b10000 \
b10000 !"
b10000 9"
b10101100000010000000000000000100 7"
b10101100000010000000000000000100 [
b10101100000010000000000000000100 8"
b11 $
b1000 8#
1\"
0U"
b1000 f
b1000 a"
b1000 ?#
b110010 5#
b110010 _
b110010 ("
b110010 ."
b110010 >#
b10 :#
b10 h
b10 @#
b10000000000000000000 }"
b10000000000000000000 5
1{"
12
b0 |"
b0 3
b0 0"
b1000 %#
b1000 x
b1000 #"
b1000 B
b10 "#
b10 ?
b1 ##
b1 @
b1 3#
b0 $#
b0 A
b0 4#
b110100000010000000000000101000 :"
b110100000010000000000000101000 J
b1100 ;"
b1100 Z
b1100 w"
b1100 5"
b1100 }
b1100 6"
0"
0+
#660000
1"
1+
#720000
b0 Y
b0 v"
0T
b1 X
b1 u"
1N
b10 W
b10 t"
b10 C
b10 D"
1G
0F
0v
0)#
b100 H
b100 p"
0N"
1L"
1P"
1l
b10 G"
b1 '
b1 &#
b1 +#
1Y"
bx /#
b10100 &"
b10100 |
b10100 3"
0["
b101000 *#
b101000 -
b101000 0#
1B"
b10100 \
b10100 !"
b10100 9"
b110100000010000000000000011110 7"
b110100000010000000000000011110 [
b110100000010000000000000011110 8"
b1000000000000000010000 {
b1000000000000000010000 ""
b10000000000000000100 K
b10000000000000000100 q"
b100 L
b100 I
b100 E"
b101011 O
b101011 F"
b1 ,
b1 ,#
1;
b101000 4
b101000 -#
b110010 0
b110010 1#
1d
0e
b110010 a
b110010 <#
b0 ;#
b101000 2"
b101000 )
b101000 (#
1r
b110010 p
b110010 )"
b110010 /"
b110010 >"
b10000 5"
b10000 }
b10000 6"
b10101100000010000000000000000100 :"
b10101100000010000000000000000100 J
b10000 ;"
b10000 Z
b10000 w"
b1 "#
b1 ?
b0 ##
b0 @
b0 3#
b10 $#
b10 A
b10 4#
b10000000000000101000 }"
b10000000000000101000 5
0{"
02
1z"
11
b101000 |"
b101000 3
b101000 0"
b1100 %#
b10101100 x
b10101100 #"
b1100 B
b1 9#
b1 g
b0 :#
b0 h
b0 @#
17#
1b
b0 5#
b0 _
b0 ("
b0 ."
b0 >#
b10 D#
b10 t
b1000 C#
1C"
b1000 s
b1000 A"
b110010 B#
b110010 o
b100 $
0"
0+
#780000
b110010 Q
b110010 ="
b110010 s"
1"
1+
#840000
1F
0G
b0 X
b0 u"
0N
b10 Y
b10 v"
1T
b1 W
b1 t"
b1 C
b1 D"
0B"
1["
b100 *#
b100 -
b100 0#
b10 '
b10 &#
b10 +#
0Y"
b11110 H
b11110 p"
0P"
0l
0L"
1N"
b1 G"
b0 p
b0 )"
b0 /"
b0 >"
0r
b101000 ;#
0d
1e
b100 4
b100 -#
b100 2"
b100 )
b100 (#
b11000 &"
b11000 |
b11000 3"
b10 ,
b10 ,#
0;
b1000000000000001111000 {
b1000000000000001111000 ""
b10000000000000011110 K
b10000000000000011110 q"
b11110 L
b11110 I
b11110 E"
b1101 O
b1101 F"
b11000 \
b11000 !"
b11000 9"
b10101100000010000000000000001000 7"
b10101100000010000000000000001000 [
b10101100000010000000000000001000 8"
b101 $
b0 B#
b0 o
b0 D#
b0 t
07#
0b
b110010 6#
b110010 `
b101000 5#
b101000 _
b101000 ("
b101000 ."
b101000 >#
b0 9#
b0 g
b10 :#
b10 h
b10 @#
b10000000000000000100 }"
b10000000000000000100 5
1{"
12
0z"
01
b100 |"
b100 3
b100 0"
b110010 !#
b110010 9
b110010 -"
b10000 %#
b100000 x
b100000 #"
b10000 B
b10 "#
b10 ?
b1 ##
b1 @
b1 3#
b0 $#
b0 A
b0 4#
b110100000010000000000000011110 :"
b110100000010000000000000011110 J
b10100 ;"
b10100 Z
b10100 w"
b10100 5"
b10100 }
b10100 6"
0"
0+
#900000
1"
1+
#960000
b0 Y
b0 v"
0T
b1 X
b1 u"
1N
b10 W
b10 t"
b10 C
b10 D"
1G
0F
b1000 H
b1000 p"
0N"
1L"
1P"
1l
b10 G"
b1 '
b1 &#
b1 +#
1Y"
b11100 &"
b11100 |
b11100 3"
0["
b11110 *#
b11110 -
b11110 0#
1B"
b11100 \
b11100 !"
b11100 9"
b110100000001000000000000000000 7"
b110100000001000000000000000000 [
b110100000001000000000000000000 8"
b1000000000000000100000 {
b1000000000000000100000 ""
b10000000000000001000 K
b10000000000000001000 q"
b1000 L
b1000 I
b1000 E"
b101011 O
b101011 F"
b1 ,
b1 ,#
1;
b11110 4
b11110 -#
b101000 0
b101000 1#
1d
0e
b101000 a
b101000 <#
b100 ;#
b11110 2"
b11110 )
b11110 (#
1r
b101000 p
b101000 )"
b101000 /"
b101000 >"
b11000 5"
b11000 }
b11000 6"
b10101100000010000000000000001000 :"
b10101100000010000000000000001000 J
b11000 ;"
b11000 Z
b11000 w"
b1 "#
b1 ?
b0 ##
b0 @
b0 3#
b10 $#
b10 A
b10 4#
b10000000000000011110 }"
b10000000000000011110 5
0{"
02
1z"
11
b11110 |"
b11110 3
b11110 0"
b10100 %#
b10001100 x
b10001100 #"
b10100 B
b1 9#
b1 g
b0 :#
b0 h
b0 @#
17#
1b
b100 5#
b100 _
b100 ("
b100 ."
b100 >#
b10 D#
b10 t
b101000 B#
b101000 o
b110 $
0"
0+
#1020000
b101000 Q
b101000 ="
b101000 s"
1"
1+
#1080000
0G
b0 X
b0 u"
0N
b10 Y
b10 v"
1T
b1 W
b1 t"
b1 C
b1 D"
0B"
b1000 *#
b1000 -
b1000 0#
b10 '
b10 &#
b10 +#
b0 H
b0 p"
1O"
0Y"
0P"
0l
0L"
1N"
b1 G"
b100 p
b100 )"
b100 /"
b100 >"
0r
b11110 ;#
0d
1e
b1000 4
b1000 -#
b1000 2"
b1000 )
b1000 (#
b100000 &"
b100000 |
b100000 3"
b10 ,
b10 ,#
0;
b100000000000000000000 {
b100000000000000000000 ""
b1000000000000000000 K
b1000000000000000000 q"
b0 L
b0 I
b0 E"
bx Q
bx ="
bx s"
0Z"
0\"
b100 V
b100 @"
b100 `"
b100 f"
b1101 O
b1101 F"
b100000 \
b100000 !"
b100000 9"
b110100000001010000000000000011 7"
b110100000001010000000000000011 [
b110100000001010000000000000011 8"
b111 $
b100 B#
b100 o
b0 D#
b0 t
07#
0b
b101000 6#
b101000 `
b11110 5#
b11110 _
b11110 ("
b11110 ."
b11110 >#
b0 9#
b0 g
b10 :#
b10 h
b10 @#
b10000000000000001000 }"
b10000000000000001000 5
1{"
12
0z"
01
b1000 |"
b1000 3
b1000 0"
b101000 !#
b101000 9
b101000 -"
b11000 %#
b111000 x
b111000 #"
b11000 B
b10 "#
b10 ?
b1 ##
b1 @
b1 3#
b0 $#
b0 A
b0 4#
b110100000001000000000000000000 :"
b110100000001000000000000000000 J
b11100 ;"
b11100 Z
b11100 w"
b11100 5"
b11100 }
b11100 6"
0"
0+
#1140000
1"
1+
#1200000
1v
1)#
b11 H
b11 p"
b1 '
b1 &#
b1 +#
b11 /#
b100 =
b100 ^"
b100 2#
b100100 &"
b100100 |
b100100 3"
b0 *#
b0 -
b0 0#
1B"
b100100 \
b100100 !"
b100100 9"
b100000000100000 7"
b100000000100000 [
b100000000100000 8"
b101000000000000001100 {
b101000000000000001100 ""
b1010000000000000011 K
b1010000000000000011 q"
b11 L
b11 I
b11 E"
b101 V
b101 @"
b101 `"
b101 f"
b1 ,
b1 ,#
1;
b0 4
b0 -#
b100 <
b100 g"
bx 0
bx 1#
1d
0e
b11110 a
b11110 <#
b1000 ;#
b0 2"
b0 )
b0 (#
1r
b11110 p
b11110 )"
b11110 /"
b11110 >"
b100000 5"
b100000 }
b100000 6"
b110100000001010000000000000011 :"
b110100000001010000000000000011 J
b100000 ;"
b100000 Z
b100000 w"
b1 "#
b1 ?
b0 ##
b0 @
b0 3#
b10 $#
b10 A
b10 4#
b1000000000000000000 }"
b1000000000000000000 5
0{"
02
b0 |"
b0 3
b0 0"
bx !#
bx 9
bx -"
b11100 %#
b11100 x
b11100 #"
b11100 B
b1 9#
b1 g
b0 :#
b0 h
b0 @#
17#
1b
b1000 5#
b1000 _
b1000 ("
b1000 ."
b1000 >#
b10 D#
b10 t
b11110 B#
b11110 o
b1000 $
0"
0+
#1260000
1"
1+
#1320000
0v
0)#
b0 E
b0 W"
b0 o"
b0 D
b0 V"
b0 n"
1R
b11111 W
b11111 t"
b1111 C
b1111 D"
0B"
b1101 /#
b101 =
b101 ^"
b101 2#
b11 *#
b11 -
b11 0#
b100000000100000 H
b100000000100000 p"
0O"
0n
0Q"
0m
1M"
b1111 G"
b1000 p
b1000 )"
b1000 /"
b1000 >"
0r
bx a
bx <#
b0 ;#
0d
1e
b11 4
b11 -#
b101 <
b101 g"
b11 2"
b11 )
b11 (#
b101000 &"
b101000 |
b101000 3"
b10000000010000000 {
b10000000010000000 ""
b100000000100000 K
b100000000100000 q"
b100000000100000 L
b100000 I
b100000 E"
b0 Q
b0 ="
b0 s"
0]"
b0 V
b0 @"
b0 `"
b0 f"
b0 O
b0 F"
b101000 \
b101000 !"
b101000 9"
b1000100100000100000 7"
b1000100100000100000 [
b1000100100000100000 8"
b1001 $
b1000 B#
b1000 o
b0 D#
b0 t
07#
0b
b100 8#
b100 f
b100 a"
b100 ?#
bx 6#
bx `
b0 5#
b0 _
b0 ("
b0 ."
b0 >#
b0 9#
b0 g
b10 :#
b10 h
b10 @#
b1010000000000000011 }"
b1010000000000000011 5
b11 |"
b11 3
b11 0"
b100000 %#
b101100 x
b101100 #"
b100000 B
b100000000100000 :"
b100000000100000 J
b100100 ;"
b100100 Z
b100100 w"
b100100 5"
b100100 }
b100100 6"
0"
0+
#1380000
1"
1+
#1440000
1v
1)#
b100100000100000 H
b100100000100000 p"
b10 '
b10 &#
b10 +#
b10 /#
b1000 =
b1000 ^"
b1000 2#
b101100 &"
b101100 |
b101100 3"
b0 *#
b0 -
b0 0#
1B"
b101100 \
b101100 !"
b101100 9"
b101000000100000 7"
b101000000100000 [
b101000000100000 8"
b100010010000010000000 {
b100010010000010000000 ""
b1000100100000100000 K
b1000100100000100000 q"
b100100000100000 L
bx Q
bx ="
bx s"
1]"
b100 V
b100 @"
b100 `"
b100 f"
1.#
b1111 ,
b1111 ,#
1:
b100000 4
b100000 -#
b1000 7
b0 <
b0 g"
b0 0
b0 1#
b11 ;#
b0 2"
b0 )
b0 (#
1r
b0 p
b0 )"
b0 /"
b0 >"
b101000 5"
b101000 }
b101000 6"
b1000100100000100000 :"
b1000100100000100000 J
b101000 ;"
b101000 Z
b101000 w"
b11111 "#
b11111 ?
b100000000100000 }"
b100000000100000 5
b0 y"
b0 /
b0 1"
b100000000100000 |"
b100000000100000 3
b100000000100000 0"
b0 !#
b0 9
b0 -"
b100100 %#
b10000000010100100 x
b10000000010100100 #"
b100100 B
b101 8#
b101 f
b101 a"
b101 ?#
b11 5#
b11 _
b11 ("
b11 ."
b11 >#
b10 D#
b10 t
b100 C#
b100 s
b100 A"
b0 B#
b0 o
b1010 $
0"
0+
#1500000
b0 Q
b0 ="
b0 s"
1"
1+
