mips_tamu/tags/lab5/test.vcd
$date
	Fri May 24 20:57:55 2013
$end
$version
	Icarus Verilog
$end
$timescale
	1ps
$end
$scope module SingleCycleProcTest_v $end
$var wire 32 ! dMemOut [31:0] $end
$var reg 1 " CLK $end
$var reg 1 # Reset_L $end
$var reg 8 $ passed [7:0] $end
$var reg 32 % startPC [31:0] $end
$scope module uut $end
$var wire 4 & ALUCtrl [3:0] $end
$var wire 4 ' ALUOp [3:0] $end
$var wire 32 ( ALUOp1 [31:0] $end
$var wire 32 ) ALUOp1_0 [31:0] $end
$var wire 32 * ALUOp1_1 [31:0] $end
$var wire 32 + ALUOp2 [31:0] $end
$var wire 32 , ALUOp2_0 [31:0] $end
$var wire 32 - ALUOut [31:0] $end
$var wire 1 . ALUSrc1 $end
$var wire 1 / ALUSrc2 $end
$var wire 1 0 Branch $end
$var wire 1 1 CLK $end
$var wire 32 2 ExtImm [31:0] $end
$var wire 6 3 FuncCode [5:0] $end
$var wire 6 4 Funct [5:0] $end
$var wire 32 5 IR [31:0] $end
$var wire 16 6 Imm [15:0] $end
$var wire 1 7 Jump $end
$var wire 1 8 MemRead $end
$var wire 1 9 MemToReg $end
$var wire 1 : MemWrite $end
$var wire 6 ; Opcode [5:0] $end
$var wire 5 < Rd [4:0] $end
$var wire 1 = RegDst $end
$var wire 1 > RegWrite $end
$var wire 32 ? RegWriteData [31:0] $end
$var wire 1 @ Reset_L $end
$var wire 5 A Rs [4:0] $end
$var wire 5 B Rt [4:0] $end
$var wire 5 C Rw [4:0] $end
$var wire 1 D Sel_Branch $end
$var wire 5 E Shamt [4:0] $end
$var wire 1 F SignExtend $end
$var wire 1 G Zero $end
$var wire 32 H branchTarget [31:0] $end
$var wire 32 I branchTarget_0 [31:0] $end
$var wire 32 J dMemOut [31:0] $end
$var wire 26 K jumpT_0 [25:0] $end
$var wire 4 L jumpT_1 [3:0] $end
$var wire 32 M jumpTarget [31:0] $end
$var wire 32 N npc [31:0] $end
$var wire 32 O pc_0 [31:0] $end
$var wire 32 P pc_1 [31:0] $end
$var wire 32 Q startPC [31:0] $end
$var reg 32 R pc [31:0] $end
$scope module InstructionMemory $end
$var wire 32 S Address [31:0] $end
$var reg 32 T Data [31:0] $end
$upscope $end
$scope module SingleCycleControl $end
$var wire 1 . ALUSrc1 $end
$var wire 6 U FuncCode [5:0] $end
$var wire 6 V Opcode [5:0] $end
$var reg 4 W ALUOp [3:0] $end
$var reg 1 X ALUSrc2 $end
$var reg 1 Y Branch $end
$var reg 1 Z Jump $end
$var reg 1 [ MemRead $end
$var reg 1 \ MemToReg $end
$var reg 1 ] MemWrite $end
$var reg 1 ^ RegDst $end
$var reg 1 _ RegWrite $end
$var reg 1 ` ShiftInst $end
$var reg 1 a SignExtend $end
$upscope $end
$scope module RegisterFile $end
$var wire 32 b BusA [31:0] $end
$var wire 32 c BusB [31:0] $end
$var wire 32 d BusW [31:0] $end
$var wire 1 1 Clk $end
$var wire 5 e RA [4:0] $end
$var wire 5 f RB [4:0] $end
$var wire 5 g RW [4:0] $end
$var wire 1 > RegWr $end
$var wire 1 h RegWrValid $end
$var wire 1 i WriteAddressValid $end
$upscope $end
$scope module ALUControl $end
$var wire 4 j ALUCtrl [3:0] $end
$var wire 4 k ALUop [3:0] $end
$var wire 6 l FuncCode [5:0] $end
$var wire 1 m op_select $end
$var reg 4 n decoded_FuncCode [3:0] $end
$upscope $end
$scope module ALU $end
$var wire 4 o ALUCtrl [3:0] $end
$var wire 32 p BusA [31:0] $end
$var wire 32 q BusB [31:0] $end
$var wire 1 G Zero $end
$var wire 1 r w_zero $end
$var reg 32 s BusW [31:0] $end
$upscope $end
$scope module DataMemory $end
$var wire 6 t Address [5:0] $end
$var wire 1 1 Clock $end
$var wire 1 8 MemoryRead $end
$var wire 1 : MemoryWrite $end
$var wire 32 u WriteData [31:0] $end
$var reg 32 v ReadData [31:0] $end
$upscope $end
$upscope $end
$scope task allPassed $end
$var reg 8 w numTests [7:0] $end
$var reg 8 x passed [7:0] $end
$upscope $end
$scope task passTest $end
$var reg 32 y actualOut [31:0] $end
$var reg 32 z expectedOut [31:0] $end
$var reg 8 { passed [7:0] $end
$var reg 257 | testType [256:0] $end
$upscope $end
$upscope $end
$enddefinitions $end
#0
$dumpvars
bx |
bx {
bx z
bx y
bx x
bx w
bx v
bx u
bx t
bx s
xr
bx q
bx p
b0 o
bx n
0m
bx l
b0 k
b0 j
xi
0h
bx g
bx f
bx e
bx d
bx c
bx b
0a
0`
0_
0^
0]
0\
0[
0Z
0Y
0X
b0 W
bx V
bx U
bx T
bx S
bx R
b0 Q
bx P
bx O
bx N
bx00 M
bx L
bx K
bx J
b0xxxxxxxxxxxxxxxx00 I
bx H
xG
0F
bx E
0D
bx C
bx B
bx A
1@
bx ?
0>
0=
bx <
bx ;
0:
09
08
07
bx 6
bx 5
bx 4
bx 3
b0xxxxxxxxxxxxxxxx 2
01
00
0/
0.
bx -
bx ,
bx +
b0xxxxx *
bx )
bx (
b0 '
b0 &
b0 %
b0 $
1#
0"
bx !
$end
#60000
1"
11
#120000
0"
01
#121000
0G
0r
b110010 t
b110010 ?
b110010 d
b11001100 H
b11001000 I
b110010 3
b110010 l
b110010 s
b110010 -
1h
b110010 +
b110010 q
b1 &
b1 j
b1 o
b100 N
b110010 2
1i
b1000 C
b1000 g
b0 (
b0 p
1_
1>
1X
1/
b1 W
b1 '
b1 k
b100 P
b0 L
b1000000000000011001000 M
b10000000000000110010 K
b110010 6
b110010 4
b110010 U
b0 *
b0 E
b0 <
b1000 B
b1000 f
b0 )
b0 b
b0 A
b0 e
b1101 ;
b1101 V
b100 O
b110100000010000000000000110010 T
b110100000010000000000000110010 5
b0 R
b0 S
0#
0@
#180000
1"
11
#240000
b110010 ,
b110010 c
b110010 u
0"
01
#241000
1#
1@
#300000
1"
11
#360000
1G
1r
b0 t
b0 ?
b0 d
b11 n
b0 s
b0 -
b0 I
b0 +
b0 q
b0 3
b0 l
0h
b10 &
b10 j
b10 o
b1000 N
b0 2
1`
0_
0>
1]
1:
1a
1F
b10 W
b10 '
b10 k
b1000 P
b1000000000000000000000 M
b10000000000000000000 K
b0 6
b0 4
b0 U
b101011 ;
b101011 V
b1000 H
b1000 O
b10101100000010000000000000000000 T
b10101100000010000000000000000000 5
b100 R
b100 S
0"
01
#420000
1"
11
#480000
0G
0r
b101000 t
b101000 ?
b101000 d
bx n
b101000 s
b101000 -
b10100000 I
b101000 +
b101000 q
b101000 3
b101000 l
1h
b1 &
b1 j
b1 o
b1100 N
b101000 2
0`
0a
0F
0]
0:
1_
1>
b1 W
b1 '
b1 k
b1100 P
b1000000000000010100000 M
b10000000000000101000 K
b101000 6
b101000 4
b101000 U
b1101 ;
b1101 V
b10101100 H
b1100 O
b110100000010000000000000101000 T
b110100000010000000000000101000 5
b1000 R
b1000 S
0"
01
#540000
1"
11
#600000
b100 t
b100 ?
b100 d
b100 s
b100 -
b10000 I
b100 +
b100 q
b100 3
b100 l
0h
b10 &
b10 j
b10 o
b10000 N
b100 2
0_
0>
1]
1:
1a
1F
b10 W
b10 '
b10 k
b10000 P
b1000000000000000010000 M
b10000000000000000100 K
b100 6
b100 4
b100 U
b101011 ;
b101011 V
b100000 H
b10000 O
b10101100000010000000000000000100 T
b10101100000010000000000000000100 5
b101000 ,
b101000 c
b101000 u
b1100 R
b1100 S
0"
01
#660000
1"
11
#720000
b11110 t
b11110 ?
b11110 d
b11110 s
b11110 -
b1111000 I
b11110 +
b11110 q
b11110 3
b11110 l
1h
b1 &
b1 j
b1 o
b10100 N
b11110 2
0a
0F
0]
0:
1_
1>
b1 W
b1 '
b1 k
b10100 P
b1000000000000001111000 M
b10000000000000011110 K
b11110 6
b11110 4
b11110 U
b1101 ;
b1101 V
b10001100 H
b10100 O
b110100000010000000000000011110 T
b110100000010000000000000011110 5
b10000 R
b10000 S
0"
01
#780000
1"
11
#840000
b1000 t
b1000 ?
b1000 d
b1000 s
b1000 -
b100000 I
b1000 +
b1000 q
b1000 3
b1000 l
0h
b10 &
b10 j
b10 o
b11000 N
b1000 2
0_
0>
1]
1:
1a
1F
b10 W
b10 '
b10 k
b11000 P
b1000000000000000100000 M
b10000000000000001000 K
b1000 6
b1000 4
b1000 U
b101011 ;
b101011 V
b111000 H
b11000 O
b10101100000010000000000000001000 T
b10101100000010000000000000001000 5
b11110 ,
b11110 c
b11110 u
b10100 R
b10100 S
0"
01
#900000
1"
11
#960000
1G
1r
b0 t
b0 ?
b0 d
b11 n
b0 s
b0 -
b0 I
b0 +
b0 q
b0 3
b0 l
1h
b1 &
b1 j
b1 o
b11100 N
b0 2
1`
b100 C
b100 g
0a
0F
0]
0:
1_
1>
b1 W
b1 '
b1 k
b11100 P
b100000000000000000000 M
b1000000000000000000 K
b0 6
b0 4
b0 U
bx ,
bx c
bx u
b100 B
b100 f
b1101 ;
b1101 V
b11100 H
b11100 O
b110100000001000000000000000000 T
b110100000001000000000000000000 5
b11000 R
b11000 S
0"
01
#1020000
1"
11
#1080000
0G
0r
b11 t
b11 ?
b11 d
b11 s
b11 -
b1101 n
b1100 I
b11 +
b11 q
b11 3
b11 l
b100000 N
b11 2
b101 C
b101 g
b100000 P
b101000000000000001100 M
b1010000000000000011 K
b11 6
b11 4
b11 U
b101 B
b101 f
b101100 H
b100000 O
b110100000001010000000000000011 T
b110100000001010000000000000011 5
bx ,
bx c
bx u
b11100 R
b11100 S
0"
01
#1140000
1"
11
#1200000
1G
1r
b0 t
b0 ?
b0 d
b10 n
b0 s
b0 -
b10000000010000000 I
b100000 3
b100000 l
b0 +
b0 q
b10 &
b10 j
b10 o
b100100 N
b100000000100000 2
0`
b1000 C
b1000 g
0.
0X
0/
1^
1=
b1111 W
1m
b1111 '
b1111 k
b100100 P
b10000000010000000 M
b100000000100000 K
b100000000100000 6
b100000 4
b100000 U
b1000 <
b0 B
b0 f
b0 ;
b0 V
b10000000010100100 H
b100100 O
b100000000100000 T
b100000000100000 5
b0 ,
b0 c
b0 u
b100000 R
b100000 S
0"
01
#1260000
1"
11
#1320000
b10010000010000000 I
b101000 N
b100100000100000 2
b1001 C
b1001 g
b101000 P
b100010010000010000000 M
b1000100100000100000 K
b100100000100000 6
b1001 <
b100 B
b100 f
b10010000010101000 H
b101000 O
b1000100100000100000 T
b1000100100000100000 5
b100100 R
b100100 S
0"
01
#1380000
1"
11
#1440000
b10100000010000000 I
b101100 N
b101000000100000 2
b1010 C
b1010 g
b101100 P
b10100000010000000 M
b101000000100000 K
b101000000100000 6
b1010 <
b0 B
b0 f
b10100000010101100 H
b101100 O
b101000000100000 T
b101000000100000 5
b101000 R
b101000 S
0"
01
#1500000
1"
11
#1560000
bx n
0G
0r
b111101 t
b11111111111111111111111111111101 ?
b11111111111111111111111111111101 d
b10100 I
b101 3
b101 l
b11111111111111111111111111111101 s
b11111111111111111111111111111101 -
0h
0D
b110 &
b110 j
b110 o
b110000 N
b101 2
b101 C
b101 g
b11 +
b11 q
0_
0>
0^
0=
1a
1F
1Y
10
b110 W
0m
b110 '
b110 k
b110000 P
b101000101000000000000010100 M
b1010001010000000000000101 K
b101 6
b101 4
b101 U
b0 <
b11 ,
b11 c
b11 u
b101 B
b101 f
b1010 A
b1010 e
b100 ;
b100 V
b1000100 H
b110000 O
b10001010001010000000000000101 T
b10001010001010000000000000101 5
b101100 R
b101100 S
0"
01
#1620000
1"
11
#1680000
1G
1r
b11 n
b0 t
b0 I
b0 3
b0 l
b0 s
b0 -
1h
bx ?
bx d
b10 &
b10 j
b10 o
b110100 N
b0 2
1`
b1011 C
b1011 g
b0 +
b0 q
0Y
00
1_
1>
1\
19
1[
18
1X
1/
b10 W
b10 '
b10 k
b110100 P
b100101011000000000000000000 M
b1001010110000000000000000 K
b0 6
b0 4
b0 U
bx ,
bx c
bx u
b1011 B
b1011 f
b1001 A
b1001 e
b100011 ;
b100011 V
b110100 H
b110100 O
b10001101001010110000000000000000 T
b10001101001010110000000000000000 5
b110000 R
b110000 S
0"
01
#1740000
b110010 ?
b110010 d
b110010 v
b110010 !
b110010 J
1"
11
#1800000
0G
0r
b110010 t
b10 n
b110010 s
b110010 -
b10000000010000000 I
b100000 3
b100000 l
b110010 ?
b110010 d
b110010 +
b110010 q
b1000 C
b1000 g
b10 &
b10 j
b10 o
b111000 N
b100000000100000 2
0`
0.
0a
0F
0[
08
0\
09
0X
0/
1^
1=
b1111 W
1m
b1111 '
b1111 k
b111000 P
b100001011010000000010000000 M
b1000010110100000000100000 K
b100000000100000 6
b100000 4
b100000 U
b1000 <
b1000 A
b1000 e
b0 ;
b0 V
b10000000010111000 H
b111000 O
b1000010110100000000100000 T
b1000010110100000000100000 5
b110010 ,
b110010 c
b110010 u
b110100 R
b110100 S
0"
01
#1860000
1"
11
#1920000
bx n
b10000 I
b100 3
b100 l
b100 t
b100 ?
b100 d
b111100 N
b100 2
b1001 C
b1001 g
b100 +
b100 q
0^
0=
1a
1F
1X
1/
b10 W
0m
b10 '
b10 k
b100 s
b100 -
b111100 P
b100101001000000000000010000 M
b1001010010000000000000100 K
b100 6
b100 4
b100 U
b0 <
b0 ,
b0 c
b0 u
b1001 B
b1001 f
b1001 A
b1001 e
b1000 ;
b1000 V
b0 (
b0 p
b1001100 H
b111100 O
b100001001010010000000000000100 T
b100001001010010000000000000100 5
b0 )
b0 b
b111000 R
b111000 S
0"
01
#1980000
1"
11
#2040000
b100 I
b1 +
b1 q
b1 3
b1 l
b1 t
b1 ?
b1 d
b1000000 N
b1 2
b1010 C
b1010 g
b1 s
b1 -
b1000000 P
b101001010000000000000000100 M
b1010010100000000000000001 K
b1 6
b1 4
b1 U
b1010 B
b1010 f
b1010 A
b1010 e
b0 (
b0 p
b1000100 H
b1000000 O
b100001010010100000000000000001 T
b100001010010100000000000000001 5
b0 )
b0 b
b0 ,
b0 c
b0 u
b111100 R
b111100 S
0"
01
#2100000
1"
11
#2160000
1G
1r
b101100 I
b1011 3
b1011 l
0h
b0 +
b0 q
b0 &
b0 j
b0 o
b0 t
b0 ?
b0 d
b101100 N
b1011 2
0i
b0 C
b0 g
0a
0F
0_
0>
0X
0/
1Z
17
b0 W
b0 '
b0 k
b0 s
b0 -
b1000100 P
b101100 M
b1011 K
b1011 6
b1011 4
b1011 U
b0 B
b0 f
b0 A
b0 e
b10 ;
b10 V
b0 (
b0 p
b1110000 H
b1000100 O
b1000000000000000000000001011 T
b1000000000000000000000001011 5
b0 )
b0 b
b0 ,
b0 c
b0 u
b1000000 R
b1000000 S
0"
01
#2220000
1"
11
#2280000
0G
0r
b111110 t
b11111111111111111111111111111110 ?
b11111111111111111111111111111110 d
b10100 I
b101 3
b101 l
b11111111111111111111111111111110 s
b11111111111111111111111111111110 -
0D
b110 &
b110 j
b110 o
b110000 N
b101 2
1i
b101 C
b101 g
b11 +
b11 q
b1 (
b1 p
0Z
07
1a
1F
1Y
10
b110 W
b110 '
b110 k
b110000 P
b101000101000000000000010100 M
b1010001010000000000000101 K
b101 6
b101 4
b101 U
b11 ,
b11 c
b11 u
b101 B
b101 f
b1 )
b1 b
b1010 A
b1010 e
b100 ;
b100 V
b1000100 H
b110000 O
b10001010001010000000000000101 T
b10001010001010000000000000101 5
b101100 R
b101100 S
0"
01
#2340000
1"
11
#2400000
b11 n
b100 t
b0 I
b0 3
b0 l
b100 s
b100 -
1h
b110010 ?
b110010 d
b10 &
b10 j
b10 o
b110100 N
b0 2
1`
b1011 C
b1011 g
b0 +
b0 q
b100 (
b100 p
0Y
00
1_
1>
1\
19
1[
18
1X
1/
b10 W
b10 '
b10 k
b110100 P
b100101011000000000000000000 M
b1001010110000000000000000 K
b0 6
b0 4
b0 U
b110010 ,
b110010 c
b110010 u
b1011 B
b1011 f
b100 )
b100 b
b1001 A
b1001 e
b100011 ;
b100011 V
b110100 H
b110100 O
b10001101001010110000000000000000 T
b10001101001010110000000000000000 5
b110000 R
b110000 S
0"
01
#2460000
b101000 ?
b101000 d
b101000 v
b101000 !
b101000 J
1"
11
#2520000
0G
0r
b10 n
b11010 t
b10000000010000000 I
b100000 3
b100000 l
b1011010 s
b1011010 -
b1011010 ?
b1011010 d
b101000 +
b101000 q
b1000 C
b1000 g
b10 &
b10 j
b10 o
b111000 N
b100000000100000 2
0`
b110010 (
b110010 p
0.
0a
0F
0[
08
0\
09
0X
0/
1^
1=
b1111 W
1m
b1111 '
b1111 k
b111000 P
b100001011010000000010000000 M
b1000010110100000000100000 K
b100000000100000 6
b100000 4
b100000 U
b1000 <
b110010 )
b110010 b
b1000 A
b1000 e
b0 ;
b0 V
b10000000010111000 H
b111000 O
b1000010110100000000100000 T
b1000010110100000000100000 5
b101000 ,
b101000 c
b101000 u
b110100 R
b110100 S
0"
01
#2580000
1"
11
#2640000
bx n
b10000 I
b100 3
b100 l
b1000 t
b1000 ?
b1000 d
b111100 N
b100 2
b1001 C
b1001 g
b100 +
b100 q
0^
0=
1a
1F
1X
1/
b10 W
0m
b10 '
b10 k
b1000 s
b1000 -
b111100 P
b100101001000000000000010000 M
b1001010010000000000000100 K
b100 6
b100 4
b100 U
b0 <
b100 ,
b100 c
b100 u
b1001 B
b1001 f
b1001 A
b1001 e
b1000 ;
b1000 V
b100 (
b100 p
b1001100 H
b111100 O
b100001001010010000000000000100 T
b100001001010010000000000000100 5
b100 )
b100 b
b111000 R
b111000 S
0"
01
#2700000
1"
11
#2760000
b100 I
b1 +
b1 q
b1 3
b1 l
b10 t
b10 ?
b10 d
b1000000 N
b1 2
b1010 C
b1010 g
b10 s
b10 -
b1000000 P
b101001010000000000000000100 M
b1010010100000000000000001 K
b1 6
b1 4
b1 U
b1010 B
b1010 f
b1010 A
b1010 e
b1 (
b1 p
b1000100 H
b1000000 O
b100001010010100000000000000001 T
b100001010010100000000000000001 5
b1 )
b1 b
b1 ,
b1 c
b1 u
b111100 R
b111100 S
0"
01
#2820000
1"
11
#2880000
1G
1r
b101100 I
b1011 3
b1011 l
0h
b0 +
b0 q
b0 &
b0 j
b0 o
b0 t
b0 ?
b0 d
b101100 N
b1011 2
0i
b0 C
b0 g
0a
0F
0_
0>
0X
0/
1Z
17
b0 W
b0 '
b0 k
b0 s
b0 -
b1000100 P
b101100 M
b1011 K
b1011 6
b1011 4
b1011 U
b0 B
b0 f
b0 A
b0 e
b10 ;
b10 V
b0 (
b0 p
b1110000 H
b1000100 O
b1000000000000000000000001011 T
b1000000000000000000000001011 5
b0 )
b0 b
b0 ,
b0 c
b0 u
b1000000 R
b1000000 S
0"
01
#2940000
1"
11
#3000000
0G
0r
b111111 t
b11111111111111111111111111111111 ?
b11111111111111111111111111111111 d
b10100 I
b101 3
b101 l
b11111111111111111111111111111111 s
b11111111111111111111111111111111 -
0D
b110 &
b110 j
b110 o
b110000 N
b101 2
1i
b101 C
b101 g
b11 +
b11 q
b10 (
b10 p
0Z
07
1a
1F
1Y
10
b110 W
b110 '
b110 k
b110000 P
b101000101000000000000010100 M
b1010001010000000000000101 K
b101 6
b101 4
b101 U
b11 ,
b11 c
b11 u
b101 B
b101 f
b10 )
b10 b
b1010 A
b1010 e
b100 ;
b100 V
b1000100 H
b110000 O
b10001010001010000000000000101 T
b10001010001010000000000000101 5
b101100 R
b101100 S
0"
01
#3060000
1"
11
#3120000
b11 n
b1000 t
b0 I
b0 3
b0 l
b1000 s
b1000 -
1h
b101000 ?
b101000 d
b10 &
b10 j
b10 o
b110100 N
b0 2
1`
b1011 C
b1011 g
b0 +
b0 q
b1000 (
b1000 p
0Y
00
1_
1>
1\
19
1[
18
1X
1/
b10 W
b10 '
b10 k
b110100 P
b100101011000000000000000000 M
b1001010110000000000000000 K
b0 6
b0 4
b0 U
b101000 ,
b101000 c
b101000 u
b1011 B
b1011 f
b1000 )
b1000 b
b1001 A
b1001 e
b100011 ;
b100011 V
b110100 H
b110100 O
b10001101001010110000000000000000 T
b10001101001010110000000000000000 5
b110000 R
b110000 S
0"
01
#3180000
b11110 ?
b11110 d
b11110 v
b11110 !
b11110 J
1"
11
#3240000
0G
0r
b10 n
b111000 t
b10000000010000000 I
b100000 3
b100000 l
b1111000 s
b1111000 -
b1111000 ?
b1111000 d
b11110 +
b11110 q
b1000 C
b1000 g
b10 &
b10 j
b10 o
b111000 N
b100000000100000 2
0`
b1011010 (
b1011010 p
0.
0a
0F
0[
08
0\
09
0X
0/
1^
1=
b1111 W
1m
b1111 '
b1111 k
b111000 P
b100001011010000000010000000 M
b1000010110100000000100000 K
b100000000100000 6
b100000 4
b100000 U
b1000 <
b1011010 )
b1011010 b
b1000 A
b1000 e
b0 ;
b0 V
b10000000010111000 H
b111000 O
b1000010110100000000100000 T
b1000010110100000000100000 5
b11110 ,
b11110 c
b11110 u
b110100 R
b110100 S
0"
01
#3300000
1"
11
#3360000
bx n
b10000 I
b100 3
b100 l
b1100 t
b1100 ?
b1100 d
b111100 N
b100 2
b1001 C
b1001 g
b100 +
b100 q
0^
0=
1a
1F
1X
1/
b10 W
0m
b10 '
b10 k
b1100 s
b1100 -
b111100 P
b100101001000000000000010000 M
b1001010010000000000000100 K
b100 6
b100 4
b100 U
b0 <
b1000 ,
b1000 c
b1000 u
b1001 B
b1001 f
b1001 A
b1001 e
b1000 ;
b1000 V
b1000 (
b1000 p
b1001100 H
b111100 O
b100001001010010000000000000100 T
b100001001010010000000000000100 5
b1000 )
b1000 b
b111000 R
b111000 S
0"
01
#3420000
1"
11
#3480000
b100 I
b1 +
b1 q
b1 3
b1 l
b11 t
b11 ?
b11 d
b1000000 N
b1 2
b1010 C
b1010 g
b11 s
b11 -
b1000000 P
b101001010000000000000000100 M
b1010010100000000000000001 K
b1 6
b1 4
b1 U
b1010 B
b1010 f
b1010 A
b1010 e
b10 (
b10 p
b1000100 H
b1000000 O
b100001010010100000000000000001 T
b100001010010100000000000000001 5
b10 )
b10 b
b10 ,
b10 c
b10 u
b111100 R
b111100 S
0"
01
#3540000
1"
11
#3600000
1G
1r
b101100 I
b1011 3
b1011 l
0h
b0 +
b0 q
b0 &
b0 j
b0 o
b0 t
b0 ?
b0 d
b101100 N
b1011 2
0i
b0 C
b0 g
0a
0F
0_
0>
0X
0/
1Z
17
b0 W
b0 '
b0 k
b0 s
b0 -
b1000100 P
b101100 M
b1011 K
b1011 6
b1011 4
b1011 U
b0 B
b0 f
b0 A
b0 e
b10 ;
b10 V
b0 (
b0 p
b1110000 H
b1000100 O
b1000000000000000000000001011 T
b1000000000000000000000001011 5
b0 )
b0 b
b0 ,
b0 c
b0 u
b1000000 R
b1000000 S
0"
01
#3660000
1"
11
#3720000
b10100 I
b101 3
b101 l
1D
b110 &
b110 j
b110 o
b1000100 N
b101 2
1i
b101 C
b101 g
b11 +
b11 q
b11 (
b11 p
0Z
07
1a
1F
1Y
10
b110 W
b110 '
b110 k
b1000100 P
b101000101000000000000010100 M
b1010001010000000000000101 K
b101 6
b101 4
b101 U
b11 ,
b11 c
b11 u
b101 B
b101 f
b11 )
b11 b
b1010 A
b1010 e
b100 ;
b100 V
b1000100 H
b110000 O
b10001010001010000000000000101 T
b10001010001010000000000000101 5
b101100 R
b101100 S
0"
01
#3780000
1"
11
#3840000
b11 n
0G
0r
b1100 t
b1100 ?
b1100 d
b0 I
b0 3
b0 l
b1100 s
b1100 -
0D
b10 &
b10 j
b10 o
b1001000 N
b0 2
1`
b1000 C
b1000 g
b0 +
b0 q
b1100 (
b1100 p
0Y
00
1]
1:
1X
1/
b10 W
b10 '
b10 k
b1001000 P
b100101000000000000000000000 M
b1001010000000000000000000 K
b0 6
b0 4
b0 U
b1111000 ,
b1111000 c
b1111000 u
b1000 B
b1000 f
b1100 )
b1100 b
b1001 A
b1001 e
b101011 ;
b101011 V
b1001000 H
b1001000 O
b10101101001010000000000000000000 T
b10101101001010000000000000000000 5
b1000100 R
b1000100 S
0"
01
#3900000
1"
11
#3960000
bx n
0G
0r
b1100 t
b110000 I
b1100 +
b1100 q
b1100 3
b1100 l
b1100 s
b1100 -
1h
b11110 ?
b11110 d
b1001100 N
b1100 2
0`
b0 (
b0 p
0]
0:
1_
1>
1\
19
1[
18
b1001100 P
b1000000000000000110000 M
b10000000000000001100 K
b1100 6
b1100 4
b1100 U
b0 )
b0 b
b0 A
b0 e
b100011 ;
b100011 V
b1111100 H
b1001100 O
b10001100000010000000000000001100 T
b10001100000010000000000000001100 5
b1001000 R
b1001000 S
0"
01
#4020000
b1111000 ?
b1111000 d
b1111000 v
b1111000 !
b1111000 J
1"
11
#4080000
1G
1r
b0 t
b11 n
b0 s
b0 -
b0 I
b0 3
b0 l
1.
0h
b0 ?
b0 d
b0 +
b0 q
b11 &
b11 j
b11 o
b1010000 N
b0 2
1`
0i
b0 C
b0 g
0a
0F
0[
08
0\
09
0X
0/
1^
1=
b1111 W
1m
b1111 '
b1111 k
b1010000 P
b0 M
b0 K
b0 6
b0 4
b0 U
b0 ,
b0 c
b0 u
b0 B
b0 f
b0 ;
b0 V
b1010000 H
b1010000 O
b0 T
b0 5
b1001100 R
b1001100 S
0"
01
#4140000
1"
11
#4200000
b10 &
b10 j
b10 o
b10 n
bx (
bx p
xG
xr
bx t
bx ?
bx d
b10000000 I
b100000 3
b100000 l
0.
bx s
bx -
b1010100 N
b100000 2
0`
bx +
bx q
b1010100 P
b1000010000000000000010000000 M
b10000100000000000000100000 K
b100000 6
b100000 4
b100000 U
bx ,
bx c
bx u
b10000 B
b10000 f
bx )
bx b
b10000 A
b10000 e
b11010100 H
b1010100 O
b10000100000000000000100000 T
b10000100000000000000100000 5
b1010000 R
b1010000 S
0"
01
#4201000
b1 $
b1 {
b101001001100101011100110111010101101100011101000111001100100000011011110110011000100000010100000111001001101111011001110111001001100001011011010010000000110001 |
b1111000 z
b1111000 y
#4260000
1"
11
#4320000
bx n
b0xxxxxxxxxxxxxxxx00 I
bx 3
bx l
b0 &
b0 j
b0 o
b1011000 N
b0xxxxxxxxxxxxxxxx 2
xi
bx C
bx g
0_
0>
0^
0=
b0 W
0m
b0 '
b0 k
b1011000 P
b0xxxxxxxxxxxxxxxxxxxxxxxxxx00 M
bx K
bx 6
bx 4
bx U
b0xxxxx *
bx E
bx <
bx B
bx f
bx A
bx e
bx ;
bx V
bx H
b1011000 O
bx T
bx 5
b1010100 R
b1010100 S
0"
01
#4321000
0G
0r
b100000 t
b10 n
b100000 ?
b100000 d
b11100100 H
b10000000 I
b100000 3
b100000 l
b100000 s
b100000 -
1h
b1 &
b1 j
b1 o
b1100100 N
b100000 2
1i
b100 C
b100 g
b100000 +
b100000 q
b0 (
b0 p
1_
1>
1X
1/
b1 W
b1 '
b1 k
b1100100 P
b100000000000010000000 M
b1000000000000100000 K
b100000 6
b100000 4
b100000 U
b0 *
b0 E
b0 <
b0 ,
b0 c
b0 u
b100 B
b100 f
b0 )
b0 b
b0 A
b0 e
b1101 ;
b1101 V
b1100100 O
b110100000001000000000000100000 T
b110100000001000000000000100000 5
b1100000 R
b1100000 S
b1100000 %
b1100000 Q
0#
0@
#4380000
1"
11
#4440000
b100000 ,
b100000 c
b100000 u
0"
01
#4441000
1#
1@
#4500000
1"
11
#4560000
b1 t
b1 ?
b1 d
bx n
b1 s
b1 -
b100 I
b1 +
b1 q
b1 3
b1 l
b10 &
b10 j
b10 o
b1101000 N
b1 2
b10 C
b10 g
1a
1F
b10 W
b10 '
b10 k
b1101000 P
b10000000000000000100 M
b100000000000000001 K
b1 6
b1 4
b1 U
bx ,
bx c
bx u
b10 B
b10 f
b1000 ;
b1000 V
b1101100 H
b1101000 O
b100000000000100000000000000001 T
b100000000000100000000000000001 5
b1100100 R
b1100100 S
0"
01
#4620000
1"
11
#4680000
0G
0r
b111111 t
b11111111111111111111111111111111 ?
b11111111111111111111111111111111 d
b110 n
b11111111111111111111111111111111 s
b11111111111111111111111111111111 -
b110000010001000 I
b100010 3
b100010 l
b11 C
b11 g
b110 &
b110 j
b110 o
b1101100 N
b1100000100010 2
0a
0F
0X
0/
1^
1=
b1111 W
1m
b1111 '
b1111 k
b1101100 P
b10000110000010001000 M
b100001100000100010 K
b1100000100010 6
b100010 4
b100010 U
b11 <
b0 ;
b0 V
b110000011110100 H
b1101100 O
b100001100000100010 T
b100001100000100010 5
b1 ,
b1 c
b1 u
b1101000 R
b1101000 S
0"
01
#4740000
1"
11
#4800000
b1 t
b1 ?
b1 d
b1 s
b1 -
b111 &
b111 j
b111 o
b111 n
b1010000010101000 I
b101010 3
b101010 l
b1110000 N
b10100000101010 2
b101 C
b101 g
b0 +
b0 q
b11111111111111111111111111111111 (
b11111111111111111111111111111111 p
b1110000 P
b1100000001010000010101000 M
b11000000010100000101010 K
b10100000101010 6
b101010 4
b101010 U
b101 <
b0 ,
b0 c
b0 u
b0 B
b0 f
b11111111111111111111111111111111 )
b11111111111111111111111111111111 b
b11 A
b11 e
b1010000100011000 H
b1110000 O
b11000000010100000101010 T
b11000000010100000101010 5
b1101100 R
b1101100 S
0"
01
#4860000
1"
11
#4920000
b10 &
b10 j
b10 o
b10 n
0G
0r
b10 t
b10 ?
b10 d
b1100000010000000 I
b100000 3
b100000 l
b10 s
b10 -
b1110100 N
b11000000100000 2
b110 C
b110 g
b1 +
b1 q
b1 (
b1 p
b1110100 P
b1000101001100000010000000 M
b10001010011000000100000 K
b11000000100000 6
b100000 4
b100000 U
b110 <
b1 ,
b1 c
b1 u
b101 B
b101 f
b1 )
b1 b
b10 A
b10 e
b1100000011110100 H
b1110100 O
b10001010011000000100000 T
b10001010011000000100000 5
b1110000 R
b1110000 S
0"
01
#4980000
1"
11
