mips_tamu/tags/lab7/test.vcd
$date
	Mon May 27 20:04:31 2013
$end
$version
	Icarus Verilog
$end
$timescale
	1ps
$end
$scope module PipelinedProcTest_v $end
$var wire 32 ! dMemOut [31:0] $end
$var reg 1 " CLK $end
$var reg 1 # Reset_L $end
$var reg 32 $ cc_counter [31:0] $end
$var reg 8 % passed [7:0] $end
$var reg 32 & startPC [31:0] $end
$scope module uut $end
$var wire 4 ' ALUCtrl [3:0] $end
$var wire 32 ( ALUOp1 [31:0] $end
$var wire 32 ) ALUOp2 [31:0] $end
$var wire 1 * Branch $end
$var wire 1 + CLK $end
$var wire 4 , EX_ALUOp [3:0] $end
$var wire 32 - EX_ALUOut [31:0] $end
$var wire 32 . EX_ALUOut_PreJal [31:0] $end
$var wire 2 / EX_AluOpCtrlA [1:0] $end
$var wire 2 0 EX_AluOpCtrlB [1:0] $end
$var wire 32 1 EX_DMIn [31:0] $end
$var wire 1 2 EX_DataMemForwardCtrl_EX $end
$var wire 1 3 EX_DataMemForwardCtrl_MEM $end
$var wire 32 4 EX_ExtImm [31:0] $end
$var wire 6 5 EX_Funct [5:0] $end
$var wire 26 6 EX_IRaddr [25:0] $end
$var wire 1 7 EX_Jal $end
$var wire 1 8 EX_MemRead $end
$var wire 5 9 EX_Rd [4:0] $end
$var wire 32 : EX_RegA [31:0] $end
$var wire 32 ; EX_RegB [31:0] $end
$var wire 2 < EX_RegDst [1:0] $end
$var wire 1 = EX_RegWrite $end
$var wire 5 > EX_Rt [4:0] $end
$var wire 5 ? EX_Rw [4:0] $end
$var wire 32 @ EX_Shamt [31:0] $end
$var wire 7 A EX_ctrlEX [6:0] $end
$var wire 2 B EX_ctrlMEM [1:0] $end
$var wire 2 C EX_ctrlWB [1:0] $end
$var wire 32 D EX_pc4 [31:0] $end
$var wire 4 E ID_ALUOp [3:0] $end
$var wire 2 F ID_AluOpCtrlA [1:0] $end
$var wire 2 G ID_AluOpCtrlB [1:0] $end
$var wire 1 H ID_DataMemForwardCtrl_EX $end
$var wire 1 I ID_DataMemForwardCtrl_MEM $end
$var wire 32 J ID_ExtImm [31:0] $end
$var wire 6 K ID_Funct [5:0] $end
$var wire 32 L ID_IR [31:0] $end
$var wire 26 M ID_IRaddr [25:0] $end
$var wire 16 N ID_Imm [15:0] $end
$var wire 1 O ID_Jal $end
$var wire 1 P ID_MemRead $end
$var wire 1 Q ID_MemWrite $end
$var wire 6 R ID_Opcode [5:0] $end
$var wire 32 S ID_RegA [31:0] $end
$var wire 32 T ID_RegB [31:0] $end
$var wire 2 U ID_RegDst [1:0] $end
$var wire 1 V ID_RegSrc $end
$var wire 1 W ID_RegWrite $end
$var wire 5 X ID_Rs [4:0] $end
$var wire 5 Y ID_Rt [4:0] $end
$var wire 7 Z ID_ctrlEX [6:0] $end
$var wire 2 [ ID_ctrlMEM [1:0] $end
$var wire 2 \ ID_ctrlWB [1:0] $end
$var wire 32 ] ID_pc4 [31:0] $end
$var wire 32 ^ IF_IR [31:0] $end
$var wire 32 _ IF_pc4 [31:0] $end
$var wire 1 ` IF_write $end
$var wire 1 a Jr $end
$var wire 1 b Jump $end
$var wire 32 c MEM_ALUOut [31:0] $end
$var wire 32 d MEM_DMIn [31:0] $end
$var wire 32 e MEM_DataIn [31:0] $end
$var wire 1 f MEM_DataMemForwardCtrl_MEM $end
$var wire 1 g MEM_MemRead $end
$var wire 1 h MEM_MemWrite $end
$var wire 1 i MEM_RegWrite $end
$var wire 5 j MEM_Rw [4:0] $end
$var wire 2 k MEM_ctrlMEM [1:0] $end
$var wire 2 l MEM_ctrlWB [1:0] $end
$var wire 32 m MEM_dMemOut [31:0] $end
$var wire 1 n PC_write $end
$var wire 1 o Reset_L $end
$var wire 1 p SignExtend $end
$var wire 1 q UseImmed $end
$var wire 1 r UseShamt $end
$var wire 32 s WB_ALUOut [31:0] $end
$var wire 32 t WB_Out [31:0] $end
$var wire 1 u WB_RegSrc $end
$var wire 1 v WB_RegWrite $end
$var wire 5 w WB_Rw [4:0] $end
$var wire 2 x WB_ctrlWB [1:0] $end
$var wire 32 y WB_dMemOut [31:0] $end
$var wire 1 z Zero $end
$var wire 2 { addrSel [1:0] $end
$var wire 32 | branchTarget [31:0] $end
$var wire 1 } bubble $end
$var wire 32 ~ dMemOut [31:0] $end
$var wire 32 !" jmpT [31:0] $end
$var wire 32 "" jumpTarget [31:0] $end
$var wire 32 #" npc [31:0] $end
$var wire 32 $" pc [31:0] $end
$var wire 32 %" startPC [31:0] $end
$scope module Rw_mux $end
$var wire 5 &" i00 [4:0] $end
$var wire 5 '" i01 [4:0] $end
$var wire 5 (" i10 [4:0] $end
$var wire 5 )" i11 [4:0] $end
$var wire 2 *" sel [1:0] $end
$var reg 5 +" out [4:0] $end
$upscope $end
$scope module pc_mux $end
$var wire 32 ," i00 [31:0] $end
$var wire 32 -" i01 [31:0] $end
$var wire 32 ." i10 [31:0] $end
$var wire 32 /" i11 [31:0] $end
$var wire 2 0" sel [1:0] $end
$var reg 32 1" out [31:0] $end
$upscope $end
$scope module alu_mux_1 $end
$var wire 32 2" i00 [31:0] $end
$var wire 32 3" i01 [31:0] $end
$var wire 32 4" i10 [31:0] $end
$var wire 32 5" i11 [31:0] $end
$var wire 2 6" sel [1:0] $end
$var reg 32 7" out [31:0] $end
$upscope $end
$scope module alu_mux_2 $end
$var wire 32 8" i00 [31:0] $end
$var wire 32 9" i01 [31:0] $end
$var wire 32 :" i10 [31:0] $end
$var wire 32 ;" i11 [31:0] $end
$var wire 2 <" sel [1:0] $end
$var reg 32 =" out [31:0] $end
$upscope $end
$scope module PC $end
$var wire 1 + CLK $end
$var wire 1 n PC_write $end
$var wire 1 o Reset_L $end
$var wire 32 >" npc [31:0] $end
$var wire 32 ?" startPC [31:0] $end
$var reg 32 @" pc [31:0] $end
$upscope $end
$scope module InstructionMemory $end
$var wire 32 A" Address [31:0] $end
$var reg 32 B" Data [31:0] $end
$upscope $end
$scope module IF_ID $end
$var wire 1 + CLK $end
$var wire 32 C" IF_IR [31:0] $end
$var wire 32 D" IF_pc4 [31:0] $end
$var wire 1 ` IF_write $end
$var reg 32 E" ID_IR [31:0] $end
$var reg 32 F" ID_pc4 [31:0] $end
$upscope $end
$scope module RegisterFile $end
$var wire 32 G" BusA [31:0] $end
$var wire 32 H" BusB [31:0] $end
$var wire 32 I" BusW [31:0] $end
$var wire 1 + Clk $end
$var wire 5 J" RA [4:0] $end
$var wire 5 K" RB [4:0] $end
$var wire 5 L" RW [4:0] $end
$var wire 1 v RegWr $end
$var wire 1 M" RegWrValid $end
$var wire 1 N" WriteAddressValid $end
$upscope $end
$scope module ControlUnit $end
$var wire 4 O" ALUOp [3:0] $end
$var wire 6 P" FuncCode [5:0] $end
$var wire 1 O Jal $end
$var wire 1 a Jr $end
$var wire 1 P MemRead $end
$var wire 1 Q MemWrite $end
$var wire 6 Q" Opcode [5:0] $end
$var wire 2 R" RegDst [1:0] $end
$var wire 1 V RegSrc $end
$var wire 1 W RegWrite $end
$var wire 1 r UseShamt $end
$var wire 1 } bubble $end
$var reg 4 S" ALUOp_nb [3:0] $end
$var reg 1 T" Branch $end
$var reg 1 U" Jal_nb $end
$var reg 1 V" JrInst $end
$var reg 1 W" Jump $end
$var reg 1 X" MemRead_nb $end
$var reg 1 Y" MemWrite_nb $end
$var reg 2 Z" RegDst_nb [1:0] $end
$var reg 1 [" RegSrc_nb $end
$var reg 1 \" RegWrite_nb $end
$var reg 1 ]" ShiftInst $end
$var reg 1 ^" SignExtend $end
$var reg 1 _" UseImmed $end
$upscope $end
$scope module ForwardingUnit $end
$var wire 1 `" A_EX $end
$var wire 1 a" A_EX_0 $end
$var wire 1 b" A_MEM $end
$var wire 1 c" A_MEM_0 $end
$var wire 2 d" AluOpCtrlA [1:0] $end
$var wire 2 e" AluOpCtrlB [1:0] $end
$var wire 1 f" AnotR0 $end
$var wire 1 g" B_EX $end
$var wire 1 h" B_EX_0 $end
$var wire 1 i" B_MEM $end
$var wire 1 j" B_MEM_0 $end
$var wire 1 k" BnotR0 $end
$var wire 1 H DataMemForwardCtrl_EX $end
$var wire 1 I DataMemForwardCtrl_MEM $end
$var wire 1 = EX_RegWrite $end
$var wire 5 l" EX_Rw [4:0] $end
$var wire 5 m" ID_Rs [4:0] $end
$var wire 5 n" ID_Rt [4:0] $end
$var wire 1 i MEM_RegWrite $end
$var wire 5 o" MEM_Rw [4:0] $end
$var wire 1 q UseImmed $end
$var wire 1 r UseShamt $end
$upscope $end
$scope module HazardUnit $end
$var wire 1 z ALUZero $end
$var wire 1 * Branch $end
$var wire 1 + Clk $end
$var wire 1 p" DataHazard $end
$var wire 1 = EX_RegWrite $end
$var wire 5 q" EX_Rw [4:0] $end
$var wire 1 a Jr $end
$var wire 1 r" JrHazard $end
$var wire 1 s" JrHazard_EX $end
$var wire 1 t" JrHazard_MEM $end
$var wire 1 b Jump $end
$var wire 1 u" LH_Rs $end
$var wire 1 v" LH_Rt $end
$var wire 1 w" LdHazard $end
$var wire 1 i MEM_RegWrite $end
$var wire 5 x" MEM_Rw [4:0] $end
$var wire 1 o Rst $end
$var wire 1 q UseImmed $end
$var wire 1 r UseShamt $end
$var wire 5 y" currRs [4:0] $end
$var wire 5 z" currRt [4:0] $end
$var wire 1 8 memReadEX $end
$var wire 5 {" prevRt [4:0] $end
$var reg 1 |" IF_write $end
$var reg 1 }" PC_write $end
$var reg 2 ~" addrSel [1:0] $end
$var reg 1 !# bubble $end
$var reg 2 "# next_state [1:0] $end
$var reg 2 ## state [1:0] $end
$upscope $end
$scope module ID_EX $end
$var wire 1 + CLK $end
$var wire 2 $# ID_AluOpCtrlA [1:0] $end
$var wire 2 %# ID_AluOpCtrlB [1:0] $end
$var wire 1 H ID_DataMemForwardCtrl_EX $end
$var wire 1 I ID_DataMemForwardCtrl_MEM $end
$var wire 32 &# ID_ExtImm [31:0] $end
$var wire 26 '# ID_IRaddr [25:0] $end
$var wire 32 (# ID_RegA [31:0] $end
$var wire 32 )# ID_RegB [31:0] $end
$var wire 7 *# ID_ctrlEX [6:0] $end
$var wire 2 +# ID_ctrlMEM [1:0] $end
$var wire 2 ,# ID_ctrlWB [1:0] $end
$var wire 32 -# ID_pc4 [31:0] $end
$var wire 1 o Reset_L $end
$var reg 2 .# EX_AluOpCtrlA [1:0] $end
$var reg 2 /# EX_AluOpCtrlB [1:0] $end
$var reg 1 0# EX_DataMemForwardCtrl_EX $end
$var reg 1 1# EX_DataMemForwardCtrl_MEM $end
$var reg 32 2# EX_ExtImm [31:0] $end
$var reg 26 3# EX_IRaddr [25:0] $end
$var reg 32 4# EX_RegA [31:0] $end
$var reg 32 5# EX_RegB [31:0] $end
$var reg 7 6# EX_ctrlEX [6:0] $end
$var reg 2 7# EX_ctrlMEM [1:0] $end
$var reg 2 8# EX_ctrlWB [1:0] $end
$var reg 32 9# EX_pc4 [31:0] $end
$upscope $end
$scope module ALU $end
$var wire 4 :# ALUCtrl [3:0] $end
$var wire 32 ;# BusA [31:0] $end
$var wire 32 <# BusB [31:0] $end
$var wire 1 z Zero $end
$var wire 1 =# w_zero $end
$var reg 32 ># BusW [31:0] $end
$upscope $end
$scope module ALUControl $end
$var wire 4 ?# ALUCtrl [3:0] $end
$var wire 4 @# ALUOp [3:0] $end
$var wire 6 A# FuncCode [5:0] $end
$var wire 1 B# op_select $end
$var reg 4 C# decoded_FuncCode [3:0] $end
$upscope $end
$scope module EX_MEM $end
$var wire 1 + CLK $end
$var wire 32 D# EX_ALUOut [31:0] $end
$var wire 32 E# EX_DMIn [31:0] $end
$var wire 1 3 EX_DataMemForwardCtrl_MEM $end
$var wire 5 F# EX_Rw [4:0] $end
$var wire 2 G# EX_ctrlMEM [1:0] $end
$var wire 2 H# EX_ctrlWB [1:0] $end
$var wire 1 o Reset_L $end
$var reg 32 I# MEM_ALUOut [31:0] $end
$var reg 32 J# MEM_DMIn [31:0] $end
$var reg 1 K# MEM_DataMemForwardCtrl_MEM $end
$var reg 5 L# MEM_Rw [4:0] $end
$var reg 2 M# MEM_ctrlMEM [1:0] $end
$var reg 2 N# MEM_ctrlWB [1:0] $end
$upscope $end
$scope module DataMemory $end
$var wire 6 O# Address [5:0] $end
$var wire 1 + Clock $end
$var wire 1 g MemoryRead $end
$var wire 1 h MemoryWrite $end
$var wire 32 P# WriteData [31:0] $end
$var reg 32 Q# ReadData [31:0] $end
$upscope $end
$scope module MEM_WB $end
$var wire 1 + CLK $end
$var wire 32 R# MEM_ALUOut [31:0] $end
$var wire 5 S# MEM_Rw [4:0] $end
$var wire 2 T# MEM_ctrlWB [1:0] $end
$var wire 32 U# MEM_dMemOut [31:0] $end
$var wire 1 o Reset_L $end
$var reg 32 V# WB_ALUOut [31:0] $end
$var reg 5 W# WB_Rw [4:0] $end
$var reg 2 X# WB_ctrlWB [1:0] $end
$var reg 32 Y# WB_dMemOut [31:0] $end
$upscope $end
$upscope $end
$scope task allPassed $end
$var reg 8 Z# numTests [7:0] $end
$var reg 8 [# passed [7:0] $end
$upscope $end
$scope task passTest $end
$var reg 32 \# actualOut [31:0] $end
$var reg 32 ]# expectedOut [31:0] $end
$var reg 8 ^# passed [7:0] $end
$var reg 257 _# testType [256:0] $end
$upscope $end
$upscope $end
$enddefinitions $end
#0
$dumpvars
bx _#
bx ^#
bx ]#
bx \#
bx [#
bx Z#
bx Y#
bx X#
bx W#
bx V#
bx U#
bx T#
bx S#
bx R#
bx Q#
bx P#
bx O#
bx N#
bx M#
bx L#
xK#
bx J#
bx I#
bx H#
bx G#
bx F#
bx E#
bx D#
bx C#
xB#
bx A#
bx @#
bx ?#
bx >#
x=#
bx <#
bx ;#
bx :#
bx 9#
bx 8#
bx 7#
bx 6#
bx 5#
bx 4#
bx 3#
bx 2#
x1#
x0#
bx /#
bx .#
bx -#
b0 ,#
b0 +#
b0 *#
bx )#
bx (#
bx '#
b0xxxxxxxxxxxxxxxx &#
bx %#
bx $#
bx ##
b0 "#
0!#
b0 ~"
1}"
1|"
bx {"
bx z"
bx y"
bx x"
xw"
xv"
xu"
xt"
xs"
0r"
bx q"
xp"
bx o"
bx n"
bx m"
bx l"
xk"
xj"
xi"
xh"
xg"
xf"
bx e"
bx d"
xc"
xb"
xa"
x`"
0_"
0^"
0]"
0\"
0["
b0 Z"
0Y"
0X"
0W"
0V"
0U"
0T"
b0 S"
b0 R"
bx Q"
bx P"
b0 O"
xN"
xM"
bx L"
bx K"
bx J"
bx I"
bx H"
bx G"
bx F"
bx E"
bx D"
bx C"
bx B"
bx A"
bx @"
b0 ?"
bx >"
bx ="
bx <"
bx ;"
bx :"
bx 9"
bx 8"
bx 7"
bx 6"
b0xxxxx 5"
bx 4"
bx 3"
bx 2"
bx 1"
b0 0"
b0 /"
bx ."
bx00 -"
bx ,"
bx +"
bx *"
b0 )"
b11111 ("
bx '"
bx &"
b0 %"
bx $"
bx #"
bx00 ""
bx00 !"
bx ~
0}
bx |
b0 {
xz
bx y
bx x
bx w
xv
xu
bx t
bx s
0r
0q
0p
1o
1n
bx m
bx l
bx k
bx j
xi
xh
xg
xf
bx e
bx d
bx c
0b
0a
1`
bx _
bx ^
bx ]
b0 \
b0 [
b0 Z
bx Y
bx X
0W
0V
b0 U
bx T
bx S
bx R
0Q
0P
0O
bx N
bx M
bx L
bx K
b0xxxxxxxxxxxxxxxx J
xI
xH
bx G
bx F
b0 E
bx D
bx C
bx B
bx A
b0xxxxx @
bx ?
bx >
x=
bx <
bx ;
bx :
bx 9
x8
x7
bx 6
bx 5
bx 4
x3
x2
bx 1
bx 0
bx /
bx .
bx -
bx ,
0+
0*
bx )
bx (
bx '
b0 &
b0 %
bx $
1#
0"
bx !
$end
#60000
1"
1+
#120000
0p"
bx0 F
bx0 d"
bx0 $#
bx0 G
bx0 e"
bx0 %#
0w"
0I
b0 '
b0 :#
b0 ?#
0u"
0v"
0`"
0g"
0s"
0B#
b0 ,
b0 @#
b0 <
b0 *"
07
08
0=
0!#
0}
1}"
1n
1|"
1`
b0xxxxxxxxxxxxxxxx 2#
b0xxxxxxxxxxxxxxxx 4
b0xxxxxxxxxxxxxxxx ;"
b0 6#
b0 A
b0 7#
b0 B
b0 G#
b0 8#
b0 C
b0 H#
b0 ##
0"
0+
#121000
0#
0o
#180000
1"
1+
#240000
b0 F
b0 d"
b0 $#
b0 G
b0 e"
b0 %#
0H
b100 1"
b100 #"
b100 >"
0b"
0i"
0t"
0M"
b100 _
b100 ,"
b100 D"
b110100000010000000000000110010 B"
b110100000010000000000000110010 ^
b110100000010000000000000110010 C"
0h
0g
0i
0u
0v
b0 @"
b0 $"
b0 A"
01#
03
bx0 /#
bx0 0
bx0 <"
bx0 .#
bx0 /
bx0 6"
b0 M#
b0 k
b0 N#
b0 l
b0 T#
b0 X#
b0 x
b0 $
0"
0+
#241000
1#
1o
#300000
1"
1+
#360000
b10 \
b10 ,#
1W
b11 G
b11 e"
b11 %#
b1 Z
b1 *#
b1 E
b1 O"
b110010 J
b110010 &#
1\"
1_"
1q
b1 S"
b1000000000000011001000 ""
b1000000000000011001000 -"
b1000 1"
b1000 #"
b1000 >"
b10000000000000110010 M
b10000000000000110010 '#
b110010 N
b110010 K
b110010 P"
1k"
b1000 Y
b1000 K"
b1000 n"
b1000 z"
b0 S
b0 G"
b0 (#
0f"
b0 X
b0 J"
b0 m"
b0 y"
b1101 R
b1101 Q"
b1000000000000011001000 !"
b1000 _
b1000 ,"
b1000 D"
b10101100000010000000000000000000 B"
b10101100000010000000000000000000 ^
b10101100000010000000000000000000 C"
b1 $
0K#
0f
00#
02
b0 /#
b0 0
b0 <"
b0 .#
b0 /
b0 6"
b110100000010000000000000110010 E"
b110100000010000000000000110010 L
b100 F"
b100 ]
b100 -#
b100 @"
b100 $"
b100 A"
0"
0+
#420000
1"
1+
#480000
b0 \
b0 ,#
0W
b1 [
b1 +#
1Q
b10 Z
b10 *#
b10 E
b10 O"
1I
0z
0=#
b110010 -
b110010 D#
b1000000000000000000000 ""
b1000000000000000000000 -"
b0 J
b0 &#
1]"
0\"
1Y"
1^"
1p
b10 S"
b1 '
b1 :#
b1 ?#
1g"
b1000 +"
0a"
1h"
b1000 ?
b1000 l"
b1000 q"
b1000 F#
b1100 1"
b1100 #"
b1100 >"
b110010 >#
b110010 .
b1100 _
b1100 ,"
b1100 D"
b110100000010000000000000101000 B"
b110100000010000000000000101000 ^
b110100000010000000000000101000 C"
b1000000000000000000000 !"
b10000000000000000000 M
b10000000000000000000 '#
b0 N
b0 K
b0 P"
b101011 R
b101011 Q"
b1 ,
b1 @#
1=
b0 @
b0 5"
b110010 5
b110010 A#
b0 9
b0 '"
b1000 >
b1000 &"
b1000 {"
b110010 ="
b110010 )
b110010 <#
b11001100 |
b11001100 ."
b0 7"
b0 (
b0 ;#
b1000 @"
b1000 $"
b1000 A"
b10101100000010000000000000000000 E"
b10101100000010000000000000000000 L
b1000 F"
b1000 ]
b1000 -#
b1 6#
b1 A
b10 8#
b10 C
b10 H#
b10000000000000110010 3#
b10000000000000110010 6
b11 /#
b11 0
b11 <"
b110010 2#
b110010 4
b110010 ;"
b0 4#
b0 :
b0 2"
b100 9#
b100 D
b10 $
0"
0+
#540000
1"
1+
#600000
b10 \
b10 ,#
1W
1z
1=#
b0 -
b0 D#
0I
b0 [
b0 +#
0Q
b1 Z
b1 *#
b1 E
b1 O"
1H
b11 C#
b0 >#
b0 .
b10 '
b10 :#
b10 ?#
0g"
b1000000000000010100000 ""
b1000000000000010100000 -"
b101000 J
b101000 &#
0]"
0^"
0p
0Y"
1\"
b1 S"
1i"
b110010 O#
1i
b0 5
b0 A#
b0 ="
b0 )
b0 <#
b10000 1"
b10000 #"
b10000 >"
b10 ,
b10 @#
0=
b1000000000000010100000 !"
b10000000000000101000 M
b10000000000000101000 '#
b101000 N
b101000 K
b101000 P"
b1101 R
b1101 Q"
b10000 _
b10000 ,"
b10000 D"
b10101100000010000000000000000100 B"
b10101100000010000000000000000100 ^
b10101100000010000000000000000100 C"
b11 $
b1000 L#
1j"
0c"
b1000 j
b1000 o"
b1000 x"
b1000 S#
b110010 I#
b110010 c
b110010 3"
b110010 9"
b110010 R#
b10 N#
b10 l
b10 T#
b10000000000000000000 3#
b10000000000000000000 6
11#
13
b0 2#
b0 4
b0 ;"
b1000 9#
b1000 |
b1000 ."
b1000 D
b10 6#
b10 A
b1 7#
b1 B
b1 G#
b0 8#
b0 C
b0 H#
b110100000010000000000000101000 E"
b110100000010000000000000101000 L
b1100 F"
b1100 ]
b1100 -#
b1100 @"
b1100 $"
b1100 A"
0"
0+
#660000
1"
1+
#720000
b0 \
b0 ,#
0W
b1 [
b1 +#
1Q
b10 Z
b10 *#
b10 E
b10 O"
1I
0H
0z
0=#
b101000 -
b101000 D#
b1000000000000000010000 ""
b1000000000000000010000 -"
b100 J
b100 &#
0\"
1Y"
1^"
1p
b10 S"
b1 '
b1 :#
b1 ?#
1g"
bx C#
b10100 1"
b10100 #"
b10100 >"
0i"
b101000 >#
b101000 .
1M"
b10100 _
b10100 ,"
b10100 D"
b110100000010000000000000011110 B"
b110100000010000000000000011110 ^
b110100000010000000000000011110 C"
b1000000000000000010000 !"
b10000000000000000100 M
b10000000000000000100 '#
b100 N
b100 K
b100 P"
b101011 R
b101011 Q"
b1 ,
b1 @#
1=
b101000 5
b101000 A#
b110010 1
b110010 E#
1h
0i
b110010 e
b110010 P#
b0 O#
b101000 ="
b101000 )
b101000 <#
1v
b110010 t
b110010 4"
b110010 :"
b110010 I"
b10000 @"
b10000 $"
b10000 A"
b10101100000010000000000000000100 E"
b10101100000010000000000000000100 L
b10000 F"
b10000 ]
b10000 -#
b1 6#
b1 A
b0 7#
b0 B
b0 G#
b10 8#
b10 C
b10 H#
b10000000000000101000 3#
b10000000000000101000 6
01#
03
10#
12
b101000 2#
b101000 4
b101000 ;"
b1100 9#
b10101100 |
b10101100 ."
b1100 D
b1 M#
b1 k
b0 N#
b0 l
b0 T#
1K#
1f
b0 I#
b0 c
b0 3"
b0 9"
b0 R#
b10 X#
b10 x
b1000 W#
1N"
b1000 w
b1000 L"
b110010 V#
b110010 s
b100 $
0"
0+
#780000
b110010 T
b110010 H"
b110010 )#
1"
1+
#840000
b10 \
b10 ,#
1W
1H
b100 -
b100 D#
0I
b0 [
b0 +#
0Q
b1 Z
b1 *#
b1 E
b1 O"
0M"
1i"
b100 >#
b100 .
b10 '
b10 :#
b10 ?#
0g"
b1000000000000001111000 ""
b1000000000000001111000 -"
b11110 J
b11110 &#
0^"
0p
0Y"
1\"
b1 S"
b0 t
b0 4"
b0 :"
b0 I"
0v
b101000 O#
0h
1i
b100 5
b100 A#
b100 ="
b100 )
b100 <#
b11000 1"
b11000 #"
b11000 >"
b10 ,
b10 @#
0=
b1000000000000001111000 !"
b10000000000000011110 M
b10000000000000011110 '#
b11110 N
b11110 K
b11110 P"
b1101 R
b1101 Q"
b11000 _
b11000 ,"
b11000 D"
b10101100000010000000000000001000 B"
b10101100000010000000000000001000 ^
b10101100000010000000000000001000 C"
b101 $
b0 V#
b0 s
b0 X#
b0 x
0K#
0f
b110010 J#
b110010 d
b101000 I#
b101000 c
b101000 3"
b101000 9"
b101000 R#
b0 M#
b0 k
b10 N#
b10 l
b10 T#
b10000000000000000100 3#
b10000000000000000100 6
11#
13
00#
02
b100 2#
b100 4
b100 ;"
b110010 5#
b110010 ;
b110010 8"
b10000 9#
b100000 |
b100000 ."
b10000 D
b10 6#
b10 A
b1 7#
b1 B
b1 G#
b0 8#
b0 C
b0 H#
b110100000010000000000000011110 E"
b110100000010000000000000011110 L
b10100 F"
b10100 ]
b10100 -#
b10100 @"
b10100 $"
b10100 A"
0"
0+
#900000
1"
1+
#960000
b0 \
b0 ,#
0W
b1 [
b1 +#
1Q
b10 Z
b10 *#
b10 E
b10 O"
1I
0H
b11110 -
b11110 D#
b1000000000000000100000 ""
b1000000000000000100000 -"
b1000 J
b1000 &#
1V"
0\"
1Y"
1^"
1p
b10 S"
b1 '
b1 :#
b1 ?#
1g"
b11100 1"
b11100 #"
b11100 >"
0i"
b11110 >#
b11110 .
1M"
b11100 _
b11100 ,"
b11100 D"
b110100000001000000000000000000 B"
b110100000001000000000000000000 ^
b110100000001000000000000000000 C"
b1000000000000000100000 !"
b10000000000000001000 M
b10000000000000001000 '#
b1000 N
b1000 K
b1000 P"
b101011 R
b101011 Q"
b1 ,
b1 @#
1=
b11110 5
b11110 A#
b101000 1
b101000 E#
1h
0i
b101000 e
b101000 P#
b100 O#
b11110 ="
b11110 )
b11110 <#
1v
b101000 t
b101000 4"
b101000 :"
b101000 I"
b11000 @"
b11000 $"
b11000 A"
b10101100000010000000000000001000 E"
b10101100000010000000000000001000 L
b11000 F"
b11000 ]
b11000 -#
b1 6#
b1 A
b0 7#
b0 B
b0 G#
b10 8#
b10 C
b10 H#
b10000000000000011110 3#
b10000000000000011110 6
01#
03
10#
12
b11110 2#
b11110 4
b11110 ;"
b10100 9#
b10001100 |
b10001100 ."
b10100 D
b1 M#
b1 k
b0 N#
b0 l
b0 T#
1K#
1f
b100 I#
b100 c
b100 3"
b100 9"
b100 R#
b10 X#
b10 x
b101000 V#
b101000 s
b110 $
0"
0+
#1020000
b101000 T
b101000 H"
b101000 )#
1"
1+
#1080000
b10 \
b10 ,#
1W
b1000 -
b1000 D#
0I
b0 [
b0 +#
0Q
b1 Z
b1 *#
b1 E
b1 O"
0M"
b10 C#
b1000 >#
b1000 .
b10 '
b10 :#
b10 ?#
b100000000000000000000 ""
b100000000000000000000 -"
b0 J
b0 &#
0V"
1]"
0g"
0^"
0p
0Y"
1\"
b1 S"
b100 t
b100 4"
b100 :"
b100 I"
0v
b11110 O#
0h
1i
b1000 5
b1000 A#
b1000 ="
b1000 )
b1000 <#
b100000 1"
b100000 #"
b100000 >"
b10 ,
b10 @#
0=
b100000000000000000000 !"
b1000000000000000000 M
b1000000000000000000 '#
b0 N
b0 K
b0 P"
bx T
bx H"
bx )#
0h"
0j"
b100 Y
b100 K"
b100 n"
b100 z"
b1101 R
b1101 Q"
b100000 _
b100000 ,"
b100000 D"
b110100000001010000000000000011 B"
b110100000001010000000000000011 ^
b110100000001010000000000000011 C"
b111 $
b100 V#
b100 s
b0 X#
b0 x
0K#
0f
b101000 J#
b101000 d
b11110 I#
b11110 c
b11110 3"
b11110 9"
b11110 R#
b0 M#
b0 k
b10 N#
b10 l
b10 T#
b10000000000000001000 3#
b10000000000000001000 6
11#
13
00#
02
b1000 2#
b1000 4
b1000 ;"
b101000 5#
b101000 ;
b101000 8"
b11000 9#
b111000 |
b111000 ."
b11000 D
b10 6#
b10 A
b1 7#
b1 B
b1 G#
b0 8#
b0 C
b0 H#
b110100000001000000000000000000 E"
b110100000001000000000000000000 L
b11100 F"
b11100 ]
b11100 -#
b11100 @"
b11100 $"
b11100 A"
0"
0+
#1140000
1"
1+
#1200000
1z
1=#
b0 -
b0 D#
b101000000000000001100 ""
b101000000000000001100 -"
b11 J
b11 &#
b1 '
b1 :#
b1 ?#
b11 C#
b100 +"
b100 ?
b100 l"
b100 q"
b100 F#
b100100 1"
b100100 #"
b100100 >"
b0 >#
b0 .
1M"
b100100 _
b100100 ,"
b100100 D"
b100000000100000 B"
b100000000100000 ^
b100000000100000 C"
b101000000000000001100 !"
b1010000000000000011 M
b1010000000000000011 '#
b11 N
b11 K
b11 P"
b101 Y
b101 K"
b101 n"
b101 z"
b1 ,
b1 @#
1=
b0 5
b0 A#
b100 >
b100 &"
b100 {"
bx 1
bx E#
1h
0i
b11110 e
b11110 P#
b1000 O#
b0 ="
b0 )
b0 <#
1v
b11110 t
b11110 4"
b11110 :"
b11110 I"
b100000 @"
b100000 $"
b100000 A"
b110100000001010000000000000011 E"
b110100000001010000000000000011 L
b100000 F"
b100000 ]
b100000 -#
b1 6#
b1 A
b0 7#
b0 B
b0 G#
b10 8#
b10 C
b10 H#
b1000000000000000000 3#
b1000000000000000000 6
01#
03
b0 2#
b0 4
b0 ;"
bx 5#
bx ;
bx 8"
b11100 9#
b11100 |
b11100 ."
b11100 D
b1 M#
b1 k
b0 N#
b0 l
b0 T#
1K#
1f
b1000 I#
b1000 c
b1000 3"
b1000 9"
b1000 R#
b10 X#
b10 x
b11110 V#
b11110 s
b1000 $
0"
0+
#1260000
1"
1+
